\relax 
\providecommand\hyper@newdestlabel[2]{}
\catcode `"\active 
\catcode `<\active 
\catcode `>\active 
\@nameuse{es@quoting}
\providecommand\HyperFirstAtBeginDocument{\AtBeginDocument}
\HyperFirstAtBeginDocument{\ifx\hyper@anchor\@undefined
\global\let\oldcontentsline\contentsline
\gdef\contentsline#1#2#3#4{\oldcontentsline{#1}{#2}{#3}}
\global\let\oldnewlabel\newlabel
\gdef\newlabel#1#2{\newlabelxx{#1}#2}
\gdef\newlabelxx#1#2#3#4#5#6{\oldnewlabel{#1}{{#2}{#3}}}
\AtEndDocument{\ifx\hyper@anchor\@undefined
\let\contentsline\oldcontentsline
\let\newlabel\oldnewlabel
\fi}
\fi}
\global\let\hyper@last\relax 
\gdef\HyperFirstAtBeginDocument#1{#1}
\providecommand\HyField@AuxAddToFields[1]{}
\providecommand\HyField@AuxAddToCoFields[2]{}
\bibstyle{es-alpha}
\reset@newl@bel
\select@language{spanish}
\@writefile{toc}{\select@language{spanish}}
\@writefile{lof}{\select@language{spanish}}
\@writefile{lot}{\select@language{spanish}}
\@writefile{toc}{\contentsline {chapter}{Resumen}{\es@scroman  {v}}{chapter*.1}}
\@writefile{lof}{\addvspace {10\p@ }}
\@writefile{lot}{\addvspace {10\p@ }}
\undonewlabel{acro:BoW}
\newlabel{acro:BoW}{{}{\es@scroman  {v}}{Resumen}{section*.2}{}}
\acronymused{BoW}
\@writefile{toc}{\contentsline {chapter}{Abstract}{\es@scroman  {vii}}{chapter*.3}}
\@writefile{lof}{\addvspace {10\p@ }}
\@writefile{lot}{\addvspace {10\p@ }}
\acronymused{BoW}
\@writefile{toc}{\contentsline {chapter}{Agradecimientos}{\es@scroman  {ix}}{chapter*.4}}
\@writefile{lof}{\addvspace {10\p@ }}
\@writefile{lot}{\addvspace {10\p@ }}
\@writefile{toc}{\contentsline {chapter}{\'Indice general}{\es@scroman  {xiii}}{chapter*.5}}
\@writefile{toc}{\contentsline {chapter}{\'{I}ndice de cuadros}{\es@scroman  {xv}}{chapter*.6}}
\@writefile{toc}{\contentsline {chapter}{\'{I}ndice de figuras}{\es@scroman  {xvii}}{chapter*.7}}
\@writefile{toc}{\contentsline {chapter}{\IeC {\'I}ndice de listados}{\es@scroman  {xix}}{chapter*.8}}
\@writefile{toc}{\contentsline {chapter}{Listado de acr\IeC {\'o}nimos}{\es@scroman  {xxi}}{chapter*.9}}
\@writefile{lof}{\addvspace {10\p@ }}
\@writefile{lot}{\addvspace {10\p@ }}
\newacro{KinBehR}[\AC@hyperlink{KinBehR}{KinBehR}]{KINect for human BEHaviour Recognition}
\newacro{HAR}[\AC@hyperlink{HAR}{HAR}]{Human Activity Recognition}
\newacro{BSD}[\AC@hyperlink{BSD}{BSD}]{Berkeley Software Distribution}
\newacro{MSR}[\AC@hyperlink{MSR}{MSR}]{Microsoft Research}
\newacro{SDK}[\AC@hyperlink{SDK}{SDK}]{Software Development Kit}
\newacro{NAVI}[\AC@hyperlink{NAVI}{NAVI}]{Navigational Aids fot the Visually Impaired}
\newacro{TOF}[\AC@hyperlink{TOF}{TOF}]{Time-Of-Flight}
\newacro{TFG}[\AC@hyperlink{TFG}{TFG}]{Trabajo Fin de Grado}
\newacro{HMM}[\AC@hyperlink{HMM}{HMM}]{Hidden Markov Models}
\newacro{GMM}[\AC@hyperlink{GMM}{GMM}]{Modelos de Mezclas Gaussianas}
\newacro{IEEE}[\AC@hyperlink{IEEE}{IEEE}]{Institute of Electrical and Electronics Engineers}
\newacro{AVSS}[\AC@hyperlink{AVSS}{AVSS}]{Advanced Video and Signal Based Surveillance}
\newacro{MHI}[\AC@hyperlink{MHI}{MHI}]{Motion History Images}
\newacro{SOM}[\AC@hyperlink{SOM}{SOM}]{Kohonen Self Organizing feature Map}
\newacro{SIR}[\AC@hyperlink{SIR}{SIR}]{Sampling Importance Resampling}
\newacro{ML}[\AC@hyperlink{ML}{ML}]{Maximum Likelihood}
\newacro{SVM}[\AC@hyperlink{SVM}{SVM}]{Support Vector Machines}
\newacro{BoW}[\AC@hyperlink{BoW}{BoW}]{Bag of Words}
\newacro{CLG}[\AC@hyperlink{CLG}{CLG}]{Combined Local-Global}
\newacro{LPP}[\AC@hyperlink{LPP}{LPP}]{Locality Preserving Projections}
\newacro{TVTL}[\AC@hyperlink{TVTL}{TVTL}]{Temporal-Vector Trajectory Learning}
\newacro{LTM}[\AC@hyperlink{LTM}{LTM}]{Locations\IeC {\textquoteright } Temporal motion of Mahalanobis distance}
\newacro{DTM}[\AC@hyperlink{DTM}{DTM}]{Difference\IeC {\textquoteright } Temporal motion of Mahalanobis distance}
\newacro{TTM}[\AC@hyperlink{TTM}{TTM}]{Trajectory Temporal motion of Mahalanobis distance}
\newacro{IN}[\AC@hyperlink{IN}{IN}]{Internaci\IeC {\'o}n Natural}
\newacro{API}[\AC@hyperlink{API}{API}]{Application Programming Interface}
\newacro{LGPL}[\AC@hyperlink{LGPL}{LGPL}]{Lesser General Public License }
\newacro{OpenNI}[\AC@hyperlink{OpenNI}{OpenNI}]{Open Natural Interaction}
\newacro{3D}[\AC@hyperlink{3D}{3D}]{Tres dimensiones}
\newacro{IDE}[\AC@hyperlink{IDE}{IDE}]{Integrated Development Environment}
\newacro{CPU}[\AC@hyperlink{CPU}{CPU}]{Central Processing Unit}
\newacro{FORTH}[\AC@hyperlink{FORTH}{FORTH}]{Foundation for Research and Technology-Hellas}
\newacro{DMO}[\AC@hyperlink{DMO}{DMO}]{DirectX Media Objec}
\newacro{USB}[\AC@hyperlink{USB}{USB}]{Universal Serial Bus}
\newacro{NUI}[\AC@hyperlink{NUI}{NUI}]{Natural User Interface}
\newacro{RAM}[\AC@hyperlink{RAM}{RAM}]{Random Access Memory}
\newacro{HTML}[\AC@hyperlink{HTML}{HTML}]{HyperText Markup Language}
\newacro{GPL}[\AC@hyperlink{GPL}{GPL}]{General Public License}
\newacro{JNA}[\AC@hyperlink{JNA}{JNA}]{Java Native Access}
\newacro{JNI}[\AC@hyperlink{JNI}{JNI}]{Java Native Interface}
\newacro{GLUT}[\AC@hyperlink{GLUT}{GLUT}]{OpenGL Utility Toolkit}
\newacro{ANSI}[\AC@hyperlink{ANSI}{ANSI}]{American National Standards Institute}
\newacro{FORTRAN}[\AC@hyperlink{FORTRAN}{FORTRAN}]{Formula Translating System}
\newacro{PPM}[\AC@hyperlink{PPM}{PPM}]{Portable PixMap format}
\newacro{PGM}[\AC@hyperlink{PGM}{PGM}]{Portable Gray Map}
\newacro{ASCII}[\AC@hyperlink{ASCII}{ASCII}]{American Standard Code for Information Interchange}
\newacro{POSIX}[\AC@hyperlink{POSIX}{POSIX}]{Portable Operating System Interface}
\newacro{JPEG}[\AC@hyperlink{JPEG}{JPEG}]{Joint Photographic Experts Group}
\newacro{XML}[\AC@hyperlink{XML}{XML}]{eXtensible Markup Language}
\newacro{IXMAS}[\AC@hyperlink{IXMAS}{IXMAS}]{INRIA Xmas Motion Acquisition Sequences}
\newacro{PERL}[\AC@hyperlink{PERL}{PERL}]{Practical Extraction and Report Language}
\newacro{GUI}[\AC@hyperlink{GUI}{GUI}]{Graphical User Interface}
\newacro{INRIA}[\AC@hyperlink{INRIA}{INRIA}]{Institut National de Recherche en Informatique et en Automatique}
\newacro{STIP}[\AC@hyperlink{STIP}{STIP}]{Space-time Interest Points}
\newacro{HOF}[\AC@hyperlink{HOF}{HOF}]{Histograms of Optical Flow}
\newacro{HOG}[\AC@hyperlink{HOG}{HOG}]{Histograms of Oriented Gradients}
\newacro{LUT}[\AC@hyperlink{LUT}{LUT}]{Look Up Table}
\newacro{KDE}[\AC@hyperlink{KDE}{KDE}]{K Desktop Environment}
\newacro{GCC}[\AC@hyperlink{GCC}{GCC}]{GNU Compiler Collection}
\newacro{GNU}[\AC@hyperlink{GNU}{GNU}]{\acs {GNU} is Not Unix}
\newacro{OO}[\AC@hyperlink{OO}{OO}]{Orientaci\IeC {\'o}n a Objetos}
\newacro{RPC}[\AC@hyperlink{RPC}{RPC}]{Remote Procedure Call}
\citation{Xu:2012:CHA:2223949.2224075}
\citation{Anguita:2012:HAR:2437855.2437888}
\@writefile{toc}{\contentsline {chapter}{\numberline {1}Introducci\IeC {\'o}n}{1}{chapter.1}}
\@writefile{lof}{\addvspace {10\p@ }}
\@writefile{lot}{\addvspace {10\p@ }}
\citation{Nebel:2011:CMC:2045195.2045230}
\citation{Joachims98textcategorization}
\citation{Tong:2002:SVM:944790.944793}
\citation{Lodhi:2002:TCU:944790.944799}
\citation{Cristianini:2002:LSK:607586.607620}
\citation{Zhu:2002:TKI:506309.506313}
\citation{kaaniche:inria-00486110}
\citation{10.1109/CVPR.2008.4587527}
\citation{LaptevP07}
\citation{weinland:inria-00544741}
\citation{10.1109/CVPR.2008.4587737}
\citation{MartinezDelRincon:2013:CRH:2537174.2537391}
\acronymused{BoW}
\acronymused{BoW}
\acronymused{BoW}
\acronymused{BoW}
\acronymused{BoW}
\@writefile{toc}{\contentsline {section}{\numberline {1.1}Estructura del documento}{4}{section.1.1}}
\acronymused{TFG}
\@writefile{toc}{\contentsline {chapter}{\numberline {2}Objetivos}{5}{chapter.2}}
\@writefile{lof}{\addvspace {10\p@ }}
\@writefile{lot}{\addvspace {10\p@ }}
\newlabel{chap:objetivos}{{2}{5}{Objetivos}{chapter.2}{}}
\@writefile{toc}{\contentsline {section}{\numberline {2.1}Objetivo general}{5}{section.2.1}}
\newlabel{objetivo_general}{{2.1}{5}{Objetivo general}{section.2.1}{}}
\undonewlabel{acro:SVM}
\newlabel{acro:SVM}{{2.1}{5}{Objetivo general}{section*.10}{}}
\acronymused{SVM}
\@writefile{toc}{\contentsline {subsection}{\numberline {2.1.1}Objetivos espec\IeC {\'\i }ficos}{5}{subsection.2.1.1}}
\newlabel{objetivos_espec\IeC {\'\i }ficos}{{2.1.1}{5}{Objetivos específicos}{subsection.2.1.1}{}}
\acronymused{KinBehR}
\acronymused{BoW}
\acronymused{SVM}
\acronymused{SVM}
\@writefile{toc}{\contentsline {chapter}{\numberline {3}Objectives}{9}{chapter.3}}
\@writefile{lof}{\addvspace {10\p@ }}
\@writefile{lot}{\addvspace {10\p@ }}
\@writefile{toc}{\contentsline {section}{\numberline {3.1}General objective}{9}{section.3.1}}
\@writefile{toc}{\contentsline {subsection}{\numberline {3.1.1}Specific objectives}{9}{subsection.3.1.1}}
\citation{webMicrosoft}
\@writefile{toc}{\contentsline {chapter}{\numberline {4}Antecedentes}{11}{chapter.4}}
\@writefile{lof}{\addvspace {10\p@ }}
\@writefile{lot}{\addvspace {10\p@ }}
\newlabel{chap:antecedentes}{{4}{11}{Antecedentes}{chapter.4}{}}
\@writefile{toc}{\contentsline {section}{\numberline {4.1}Kinect para Xbox 360}{11}{section.4.1}}
\newlabel{kinect_antecedentes}{{4.1}{11}{Kinect para Xbox 360}{section.4.1}{}}
\@writefile{toc}{\contentsline {subsection}{\numberline {4.1.1}Introducci\IeC {\'o}n}{11}{subsection.4.1.1}}
\newlabel{introduccion_kinect}{{4.1.1}{11}{Introducción}{subsection.4.1.1}{}}
\citation{webWiiMote}
\citation{webPlayStation}
\@writefile{lof}{\contentsline {figure}{\numberline {4.1}{\ignorespaces Kinect para Xbox 360 ~\cite  {webMicrosoft}.}}{12}{figure.4.1}}
\newlabel{fig:kinect_xbox_360}{{4.1}{12}{Kinect para Xbox 360 ~\cite {webMicrosoft}}{figure.4.1}{}}
\@writefile{toc}{\contentsline {subsection}{\numberline {4.1.2}La creaci\IeC {\'o}n de Kinect}{12}{subsection.4.1.2}}
\newlabel{creacion_de_kinect}{{4.1.2}{12}{La creación de Kinect}{subsection.4.1.2}{}}
\@writefile{lof}{\contentsline {figure}{\numberline {4.2}{\ignorespaces Wiimote para Wii ~\cite  {webWiiMote}.}}{13}{figure.4.2}}
\newlabel{fig:wiimote}{{4.2}{13}{Wiimote para Wii ~\cite {webWiiMote}}{figure.4.2}{}}
\@writefile{lof}{\contentsline {figure}{\numberline {4.3}{\ignorespaces PlayStation Move para PlayStation 3 ~\cite  {webPlayStation}.}}{13}{figure.4.3}}
\newlabel{fig:playStationMove}{{4.3}{13}{PlayStation Move para PlayStation 3 ~\cite {webPlayStation}}{figure.4.3}{}}
\@writefile{toc}{\contentsline {subsubsection}{Precedentes}{13}{subsection.4.1.2}}
\newlabel{precedentes_kinect}{{4.1.2}{13}{Precedentes}{subsection.4.1.2}{}}
\citation{webMinorityReport}
\citation{webWiiMoteaxis}
\@writefile{lof}{\contentsline {figure}{\numberline {4.4}{\ignorespaces Escena de \textit  {``Minority Report''} ~\cite  {webMinorityReport}.}}{15}{figure.4.4}}
\newlabel{fig:minority_report}{{4.4}{15}{Escena de \textit {``Minority Report''} ~\cite {webMinorityReport}}{figure.4.4}{}}
\@writefile{toc}{\contentsline {subsubsection}{Evoluci\IeC {\'o}n}{15}{figure.4.4}}
\newlabel{evolucion_kinect}{{4.1.2}{15}{Evolución}{figure.4.4}{}}
\@writefile{lof}{\contentsline {figure}{\numberline {4.5}{\ignorespaces Disposici\IeC {\'o}n del dispositivo Wiimote ~\cite  {webWiiMoteaxis}.}}{16}{figure.4.5}}
\newlabel{fig:3ejes_wiimote}{{4.5}{16}{Disposición del dispositivo Wiimote ~\cite {webWiiMoteaxis}}{figure.4.5}{}}
\citation{webb2012beginning}
\citation{webb2012beginning}
\undonewlabel{acro:MSR}
\newlabel{acro:MSR}{{4.1.2}{17}{Evolución}{section*.11}{}}
\acronymused{MSR}
\@writefile{lof}{\contentsline {figure}{\numberline {4.6}{\ignorespaces \textit  {Player blob} ~\cite  {webb2012beginning}.}}{18}{figure.4.6}}
\newlabel{fig:player_bob}{{4.6}{18}{\textit {Player blob} ~\cite {webb2012beginning}}{figure.4.6}{}}
\@writefile{lof}{\contentsline {figure}{\numberline {4.7}{\ignorespaces \textit  {Player blob} dividido en partes ~\cite  {webb2012beginning}.}}{18}{figure.4.7}}
\newlabel{fig:player_blob_partes}{{4.7}{18}{\textit {Player blob} dividido en partes ~\cite {webb2012beginning}}{figure.4.7}{}}
\@writefile{toc}{\contentsline {subsubsection}{Homebrew de Kinect}{19}{figure.4.7}}
\newlabel{hackeo_kinect}{{4.1.2}{19}{Homebrew de Kinect}{figure.4.7}{}}
\acronymused{OpenNI}
\citation{webJohnnyLee}
\@writefile{lof}{\contentsline {figure}{\numberline {4.8}{\ignorespaces Johnny Lee mostrando las modificaciones al Wii Remote ~\cite  {webJohnnyLee}.}}{20}{figure.4.8}}
\newlabel{fig:Johnny_Chung_Lee}{{4.8}{20}{Johnny Lee mostrando las modificaciones al Wii Remote ~\cite {webJohnnyLee}}{figure.4.8}{}}
\citation{webUSBbeagle480}
\@writefile{lof}{\contentsline {figure}{\numberline {4.9}{\ignorespaces Analizador de USB Beagle 480 ~\cite  {webUSBbeagle480}.}}{21}{figure.4.9}}
\newlabel{fig:beagle_480}{{4.9}{21}{Analizador de USB Beagle 480 ~\cite {webUSBbeagle480}}{figure.4.9}{}}
\acronymused{OpenNI}
\acronymused{OpenNI}
\undonewlabel{acro:SDK}
\newlabel{acro:SDK}{{4.1.2}{21}{Homebrew de Kinect}{section*.12}{}}
\acronymused{SDK}
\citation{webCoolerVideoconferencing}
\citation{webCoolerVideoconferencing}
\citation{webPrincessLeia}
\@writefile{toc}{\contentsline {subsection}{\numberline {4.1.3}Desarrollo de aplicaciones alternativas}{22}{subsection.4.1.3}}
\@writefile{lof}{\contentsline {figure}{\numberline {4.10}{\ignorespaces Kinect for Cooler Videoconferencing ~\cite  {webCoolerVideoconferencing}.}}{22}{figure.4.10}}
\newlabel{fig:Kinect_Videoconferencing}{{4.10}{22}{Kinect for Cooler Videoconferencing ~\cite {webCoolerVideoconferencing}}{figure.4.10}{}}
\citation{webPrincessLeia}
\@writefile{lof}{\contentsline {figure}{\numberline {4.11}{\ignorespaces Real-Time Princess Leia Holography Via Kinect Hack ~\cite  {webPrincessLeia}.}}{23}{figure.4.11}}
\newlabel{fig:Leia-Hologram-in-pieces}{{4.11}{23}{Real-Time Princess Leia Holography Via Kinect Hack ~\cite {webPrincessLeia}}{figure.4.11}{}}
\citation{wbUbiInteractive}
\citation{wbUbiInteractive}
\citation{webFitnect}
\citation{webFitnect}
\citation{wbTedcas}
\@writefile{toc}{\contentsline {subsubsection}{Ocio}{24}{figure.4.11}}
\@writefile{lof}{\contentsline {figure}{\numberline {4.12}{\ignorespaces Ubi Interactive ~\cite  {wbUbiInteractive}.}}{24}{figure.4.12}}
\newlabel{fig:Ubi_interactive}{{4.12}{24}{Ubi Interactive ~\cite {wbUbiInteractive}}{figure.4.12}{}}
\@writefile{lof}{\contentsline {figure}{\numberline {4.13}{\ignorespaces Fitnect ~\cite  {webFitnect}.}}{24}{figure.4.13}}
\newlabel{fig:fitnect}{{4.13}{24}{Fitnect ~\cite {webFitnect}}{figure.4.13}{}}
\citation{wbTedcas}
\citation{wbVirtualRehab}
\citation{wbVirtualRehab}
\citation{webKinectEducation}
\@writefile{toc}{\contentsline {subsubsection}{Medicina}{25}{figure.4.13}}
\@writefile{lof}{\contentsline {figure}{\numberline {4.14}{\ignorespaces TedCas ~\cite  {wbTedcas}.}}{25}{figure.4.14}}
\newlabel{fig:Tedcas}{{4.14}{25}{TedCas ~\cite {wbTedcas}}{figure.4.14}{}}
\@writefile{lof}{\contentsline {figure}{\numberline {4.15}{\ignorespaces VirtualRehab ~\cite  {wbVirtualRehab}.}}{25}{figure.4.15}}
\newlabel{fig:VirtualRehab}{{4.15}{25}{VirtualRehab ~\cite {wbVirtualRehab}}{figure.4.15}{}}
\@writefile{toc}{\contentsline {subsubsection}{Educaci\IeC {\'o}n}{25}{figure.4.15}}
\citation{webRiverCrossing}
\citation{webKinectmath}
\citation{webjumpido}
\citation{webjumpido}
\citation{webNAVI}
\@writefile{lof}{\contentsline {figure}{\numberline {4.16}{\ignorespaces Juego \textit  {River Corssing} ~\cite  {webRiverCrossing}.}}{26}{figure.4.16}}
\newlabel{fig:river_crossing}{{4.16}{26}{Juego \textit {River Corssing} ~\cite {webRiverCrossing}}{figure.4.16}{}}
\@writefile{toc}{\contentsline {subsubsection}{Accesibilidad}{26}{figure.4.18}}
\undonewlabel{acro:NAVI}
\newlabel{acro:NAVI}{{4.1.3}{26}{Accesibilidad}{section*.13}{}}
\acronymused{NAVI}
\citation{webNAVI}
\citation{webSignLanguageTranslator}
\@writefile{lof}{\contentsline {figure}{\numberline {4.17}{\ignorespaces \textit  {Kinect Math} ~\cite  {webKinectmath}.}}{27}{figure.4.17}}
\newlabel{fig:kinect_math}{{4.17}{27}{\textit {Kinect Math} ~\cite {webKinectmath}}{figure.4.17}{}}
\@writefile{lof}{\contentsline {figure}{\numberline {4.18}{\ignorespaces Actividad \textit  {``Baskets''} integrada en la plataforma Jumpido ~\cite  {webjumpido}.}}{27}{figure.4.18}}
\newlabel{fig:jumpido}{{4.18}{27}{Actividad \textit {``Baskets''} integrada en la plataforma Jumpido ~\cite {webjumpido}}{figure.4.18}{}}
\acronymused{MSR}
\@writefile{lof}{\contentsline {figure}{\numberline {4.19}{\ignorespaces NAVI (Navigational Aids fot the Visually Impaired) ~\cite  {webNAVI}.}}{28}{figure.4.19}}
\newlabel{fig:navi}{{4.19}{28}{NAVI (Navigational Aids fot the Visually Impaired) ~\cite {webNAVI}}{figure.4.19}{}}
\@writefile{lof}{\contentsline {figure}{\numberline {4.20}{\ignorespaces Kinect Sign Language Translator ~\cite  {webSignLanguageTranslator}.}}{28}{figure.4.20}}
\newlabel{fig:Kinect-lenguaje-signos}{{4.20}{28}{Kinect Sign Language Translator ~\cite {webSignLanguageTranslator}}{figure.4.20}{}}
\@writefile{toc}{\contentsline {subsection}{\numberline {4.1.4}Caracter\IeC {\'\i }sticas t\IeC {\'e}cnicas}{28}{subsection.4.1.4}}
\newlabel{caracteristicas_tecnicas_kinect}{{4.1.4}{28}{Características técnicas}{subsection.4.1.4}{}}
\citation{webDocumentacionKinect}
\@writefile{lot}{\contentsline {table}{\numberline {4.1}{\ignorespaces Especificaci\IeC {\'o}n t\IeC {\'e}cnica Kinect.}}{29}{table.4.1}}
\newlabel{table:tabla_tecnica_kinect}{{4.1}{29}{Especificación técnica Kinect}{table.4.1}{}}
\@writefile{lof}{\contentsline {figure}{\numberline {4.21}{\ignorespaces Distribuci\IeC {\'o}n de los componentes en Kinect ~\cite  {webDocumentacionKinect}.}}{29}{figure.4.21}}
\newlabel{fig:partes_kinect}{{4.21}{29}{Distribución de los componentes en Kinect ~\cite {webDocumentacionKinect}}{figure.4.21}{}}
\citation{webDocumentacionKinect}
\citation{webDocumentacionKinect}
\@writefile{lof}{\contentsline {figure}{\numberline {4.22}{\ignorespaces Distancia para el reconocimiento del esqueleto en Kinect ~\cite  {webDocumentacionKinect}.}}{30}{figure.4.22}}
\newlabel{fig:near_mode}{{4.22}{30}{Distancia para el reconocimiento del esqueleto en Kinect ~\cite {webDocumentacionKinect}}{figure.4.22}{}}
\@writefile{toc}{\contentsline {subsubsection}{Segunda generaci\IeC {\'o}n de Kinect}{30}{figure.4.22}}
\undonewlabel{acro:TOF}
\newlabel{acro:TOF}{{4.1.4}{30}{Segunda generación de Kinect}{section*.14}{}}
\acronymused{TOF}
\acronymused{TOF}
\@writefile{lof}{\contentsline {figure}{\numberline {4.23}{\ignorespaces Segunda generaci\IeC {\'o}n de Kinect ~\cite  {webDocumentacionKinect}.}}{31}{figure.4.23}}
\newlabel{fig:kinect_segunda_generacion}{{4.23}{31}{Segunda generación de Kinect ~\cite {webDocumentacionKinect}}{figure.4.23}{}}
\acronymused{TFG}
\@writefile{toc}{\contentsline {subsection}{\numberline {4.1.5}Ventajas de Kinect frente a otros dispositivos}{32}{subsection.4.1.5}}
\@writefile{toc}{\contentsline {subsection}{\numberline {4.1.6}Funcionamiento}{32}{subsection.4.1.6}}
\newlabel{funcionamiento_kinect}{{4.1.6}{32}{Funcionamiento}{subsection.4.1.6}{}}
\@writefile{toc}{\contentsline {subsubsection}{C\IeC {\'a}mara RGB}{32}{subsection.4.1.6}}
\newlabel{camara_rgb}{{4.1.6}{32}{Cámara RGB}{subsection.4.1.6}{}}
\@writefile{lof}{\contentsline {figure}{\numberline {4.24}{\ignorespaces Componentes de un p\IeC {\'\i }xel.}}{33}{figure.4.24}}
\newlabel{fig:componentes_pixel}{{4.24}{33}{Componentes de un píxel}{figure.4.24}{}}
\@writefile{lof}{\contentsline {figure}{\numberline {4.25}{\ignorespaces Estructura del vector de bytes de la imagen.}}{33}{figure.4.25}}
\newlabel{fig:estructura_vector_bytes}{{4.25}{33}{Estructura del vector de bytes de la imagen}{figure.4.25}{}}
\@writefile{toc}{\contentsline {subsubsection}{C\IeC {\'a}mara profundidad}{33}{figure.4.25}}
\newlabel{camara_profundidad}{{4.1.6}{33}{Cámara profundidad}{figure.4.25}{}}
\citation{borenstein2012making}
\@writefile{lof}{\contentsline {figure}{\numberline {4.26}{\ignorespaces Fase de calibraci\IeC {\'o}n del sistema de mapas de profundidad de la Kinect.}}{34}{figure.4.26}}
\newlabel{fig:fase_calibracion}{{4.26}{34}{Fase de calibración del sistema de mapas de profundidad de la Kinect}{figure.4.26}{}}
\citation{webDocumentacionKinect}
\@writefile{lof}{\contentsline {figure}{\numberline {4.27}{\ignorespaces Imagen de los puntos infrarrojos proyectados en una pared ~\cite  {borenstein2012making}.}}{35}{figure.4.27}}
\newlabel{fig:puntos_infrarrojos_en_pared}{{4.27}{35}{Imagen de los puntos infrarrojos proyectados en una pared ~\cite {borenstein2012making}}{figure.4.27}{}}
\newlabel{eq:triangulacion_activa}{{4.1}{35}{Cámara profundidad}{equation.4.1.1}{}}
\@writefile{toc}{\contentsline {subsubsection}{Sistema de micr\IeC {\'o}fonos}{35}{equation.4.1.1}}
\@writefile{toc}{\contentsline {subsubsection}{Motor de inclinaci\IeC {\'o}n}{35}{figure.4.29}}
\@writefile{lof}{\contentsline {figure}{\numberline {4.28}{\ignorespaces Fase de funcionamiento del sistema de mapas de profundidad de la Kinect.}}{36}{figure.4.28}}
\newlabel{fig:fase_funcionamiento}{{4.28}{36}{Fase de funcionamiento del sistema de mapas de profundidad de la Kinect}{figure.4.28}{}}
\@writefile{lof}{\contentsline {figure}{\numberline {4.29}{\ignorespaces Disposici\IeC {\'o}n de los micr\IeC {\'o}fonos en Kinect ~\cite  {webDocumentacionKinect}.}}{36}{figure.4.29}}
\newlabel{fig:kinect-microfonos}{{4.29}{36}{Disposición de los micrófonos en Kinect ~\cite {webDocumentacionKinect}}{figure.4.29}{}}
\citation{Kramer:2012:HK:2207813}
\citation{catuhe2012programming}
\citation{kean2011meet}
\citation{webb2012beginning}
\citation{miles2012learn}
\citation{davison2012kinect}
\citation{jana2012kinect}
\citation{falahati2013openni}
\@writefile{toc}{\contentsline {subsection}{\numberline {4.1.7}\IeC {\textquestiondown }Por qu\IeC {\'e} Kinect?}{37}{subsection.4.1.7}}
\newlabel{por_que_kinect}{{4.1.7}{37}{¿Por qué Kinect?}{subsection.4.1.7}{}}
\@writefile{toc}{\contentsline {subsection}{\numberline {4.1.8}Librer\IeC {\'\i }as Kinect}{37}{subsection.4.1.8}}
\newlabel{librerias_kinect}{{4.1.8}{37}{Librerías Kinect}{subsection.4.1.8}{}}
\acronymused{SDK}
\acronymused{OpenNI}
\@writefile{toc}{\contentsline {subsubsection}{SDK Windows}{38}{subsection.4.1.8}}
\newlabel{sdk_windows}{{4.1.8}{38}{SDK Windows}{subsection.4.1.8}{}}
\acronymused{SDK}
\acronymused{SDK}
\acronymused{SDK}
\acronymused{API}
\@writefile{toc}{\contentsline {paragraph}{Descripci\IeC {\'o}n del \acs {SDK}\newline  }{38}{subsection.4.1.8}}
\acronymused{SDK}
\acronymused{SDK}
\acronymused{API}
\acronymused{SDK}
\acronymused{SDK}
\acronymused{SDK}
\acronymused{SDK}
\citation{webDocumentacionSDK}
\acronymused{API}
\acronymused{API}
\acronymused{API}
\acronymused{SDK}
\@writefile{lof}{\contentsline {figure}{\numberline {4.30}{\ignorespaces Arquitectura del \acs {SDK} ~\cite  {webDocumentacionSDK}.}}{39}{figure.4.30}}
\acronymused{SDK}
\newlabel{fig:sdk_arquitectura}{{4.30}{39}{Arquitectura del \acs {SDK} ~\cite {webDocumentacionSDK}}{figure.4.30}{}}
\acronymused{USB}
\acronymused{SDK}
\acronymused{API}
\citation{webDocumentacionSDK}
\citation{webDocumentacionSDK}
\undonewlabel{acro:NUI}
\newlabel{acro:NUI}{{4.1.8}{40}{Descripción del \acs {SDK}\newline }{section*.15}{}}
\acronymused{NUI}
\undonewlabel{acro:DMO}
\newlabel{acro:DMO}{{4.1.8}{40}{Descripción del \acs {SDK}\newline }{section*.16}{}}
\acronymused{DMO}
\acronymused{API}
\acronymused{API}
\acronymused{SDK}
\acronymused{SDK}
\acronymused{SDK}
\acronymused{NUI}
\acronymused{API}
\acronymused{SDK}
\acronymused{NUI}
\@writefile{lof}{\contentsline {figure}{\numberline {4.31}{\ignorespaces Interacci\IeC {\'o}n del hardware y software con una aplicaci\IeC {\'o}n ~\cite  {webDocumentacionSDK}.}}{40}{figure.4.31}}
\newlabel{fig:libreria_NUI}{{4.31}{40}{Interacción del hardware y software con una aplicación ~\cite {webDocumentacionSDK}}{figure.4.31}{}}
\acronymused{NUI}
\acronymused{API}
\acronymused{API}
\acronymused{SDK}
\citation{webDocumentacionSDK}
\citation{webDocumentacionSDK}
\@writefile{lof}{\contentsline {figure}{\numberline {4.32}{\ignorespaces Articulaciones reconocidas por el \acs {SDK} de Kinect ~\cite  {webDocumentacionSDK}.}}{41}{figure.4.32}}
\acronymused{SDK}
\newlabel{fig:tracking_sdk}{{4.32}{41}{Articulaciones reconocidas por el \acs {SDK} de Kinect ~\cite {webDocumentacionSDK}}{figure.4.32}{}}
\acronymused{SDK}
\@writefile{lof}{\contentsline {figure}{\numberline {4.33}{\ignorespaces Puntos del rostro humano reconocidos por el \acs {SDK} de Microsoft ~\cite  {webDocumentacionSDK}.}}{41}{figure.4.33}}
\acronymused{SDK}
\newlabel{fig:puntos_rostro}{{4.33}{41}{Puntos del rostro humano reconocidos por el \acs {SDK} de Microsoft ~\cite {webDocumentacionSDK}}{figure.4.33}{}}
\acronymused{SDK}
\acronymused{SDK}
\citation{webDocumentacionSDK}
\@writefile{lof}{\contentsline {figure}{\numberline {4.34}{\ignorespaces Arquitectura de \textit  {KinectInteraction} ~\cite  {webDocumentacionSDK}.}}{42}{figure.4.34}}
\newlabel{fig:arquitectura_kinectInteraction}{{4.34}{42}{Arquitectura de \textit {KinectInteraction} ~\cite {webDocumentacionSDK}}{figure.4.34}{}}
\acronymused{API}
\acronymused{SDK}
\@writefile{lof}{\contentsline {figure}{\numberline {4.35}{\ignorespaces Resultado obtenido a trav\IeC {\'e}s de \textit  {Kinect Fusion} ~\cite  {webDocumentacionSDK}.}}{42}{figure.4.35}}
\newlabel{fig:kinect_fusion}{{4.35}{42}{Resultado obtenido a través de \textit {Kinect Fusion} ~\cite {webDocumentacionSDK}}{figure.4.35}{}}
\citation{webb2012beginning}
\@writefile{toc}{\contentsline {subparagraph}{Plataformas soportadas\newline  }{43}{figure.4.35}}
\acronymused{USB}
\acronymused{RAM}
\@writefile{toc}{\contentsline {paragraph}{Evoluci\IeC {\'o}n del framework\newline  }{43}{figure.4.35}}
\acronymused{SDK}
\acronymused{SDK}
\acronymused{SDK}
\acronymused{SDK}
\acronymused{SDK}
\acronymused{HTML}
\acronymused{HTML}
\@writefile{lof}{\contentsline {figure}{\numberline {4.36}{\ignorespaces Evoluci\IeC {\'o}n del \acs {SDK} de Kinect ~\cite  {webb2012beginning}.}}{44}{figure.4.36}}
\acronymused{SDK}
\newlabel{fig:evolucion_SDK}{{4.36}{44}{Evolución del \acs {SDK} de Kinect ~\cite {webb2012beginning}}{figure.4.36}{}}
\acronymused{API}
\@writefile{toc}{\contentsline {paragraph}{Ventajas y desventajas\newline  }{44}{figure.4.36}}
\acronymused{SDK}
\@writefile{toc}{\contentsline {subparagraph}{Ventajas\newline  }{44}{figure.4.36}}
\acronymused{SDK}
\acronymused{SDK}
\acronymused{API}
\acronymused{API}
\acronymused{SDK}
\@writefile{toc}{\contentsline {subparagraph}{Desventajas\newline  }{45}{figure.4.36}}
\acronymused{SDK}
\acronymused{IDE}
\acronymused{SDK}
\acronymused{SDK}
\acronymused{SDK}
\acronymused{SDK}
\@writefile{toc}{\contentsline {subsubsection}{OpenNI}{45}{figure.4.36}}
\newlabel{OpenNI}{{4.1.8}{45}{OpenNI}{figure.4.36}{}}
\undonewlabel{acro:OpenNI}
\newlabel{acro:OpenNI}{{4.1.8}{45}{OpenNI}{section*.17}{}}
\acronymused{OpenNI}
\undonewlabel{acro:IN}
\newlabel{acro:IN}{{4.1.8}{45}{OpenNI}{section*.18}{}}
\acronymused{IN}
\acronymused{OpenNI}
\acronymused{SDK}
\acronymused{OpenNI}
\citation{webAxusXtion}
\acronymused{OpenNI}
\acronymused{IN}
\acronymused{OpenNI}
\@writefile{toc}{\contentsline {paragraph}{Descripci\IeC {\'o}n del framework\newline  }{46}{figure.4.36}}
\acronymused{OpenNI}
\acronymused{GNU}
\undonewlabel{acro:LGPL}
\newlabel{acro:LGPL}{{4.1.8}{46}{Descripción del framework\newline }{section*.19}{}}
\acronymused{LGPL}
\acronymused{API}
\@writefile{lof}{\contentsline {figure}{\numberline {4.37}{\ignorespaces AXUS Xtion ~\cite  {webAxusXtion}.}}{46}{figure.4.37}}
\newlabel{fig:AXUS_Xtion}{{4.37}{46}{AXUS Xtion ~\cite {webAxusXtion}}{figure.4.37}{}}
\citation{webDocumentacionOpenNI}
\acronymused{API}
\@writefile{lof}{\contentsline {figure}{\numberline {4.38}{\ignorespaces Arquitectura del framework \acs {OpenNI} 2 ~\cite  {webDocumentacionOpenNI}.}}{47}{figure.4.38}}
\acronymused{OpenNI}
\newlabel{fig:OpenNI2_Architecture}{{4.38}{47}{Arquitectura del framework \acs {OpenNI} 2 ~\cite {webDocumentacionOpenNI}}{figure.4.38}{}}
\acronymused{OpenNI}
\acronymused{OpenNI}
\acronymused{API}
\acronymused{OpenNI}
\acronymused{API}
\citation{webTomoto}
\acronymused{OpenNI}
\acronymused{API}
\acronymused{OpenNI}
\acronymused{SDK}
\acronymused{OpenNI}
\acronymused{SDK}
\acronymused{SDK}
\acronymused{OpenNI}
\acronymused{OpenNI}
\@writefile{toc}{\contentsline {subparagraph}{Plataformas soportadas\newline  }{48}{figure.4.39}}
\@writefile{lof}{\contentsline {figure}{\numberline {4.39}{\ignorespaces Soluci\IeC {\'o}n propuesta por Tomoto S. Washio ~\cite  {webTomoto}.}}{49}{figure.4.39}}
\newlabel{fig:bridge_sdk}{{4.39}{49}{Solución propuesta por Tomoto S. Washio ~\cite {webTomoto}}{figure.4.39}{}}
\@writefile{toc}{\contentsline {subparagraph}{NiTE y otros middlewares de inter\IeC {\'e}s\newline  }{49}{figure.4.39}}
\acronymused{OpenNI}
\acronymused{OpenNI}
\acronymused{CPU}
\citation{web3DHand}
\citation{web3DHand}
\citation{webkscan3d}
\acronymused{OpenNI}
\acronymused{API}
\acronymused{OpenNI}
\undonewlabel{acro:FORTH}
\newlabel{acro:FORTH}{{4.1.8}{50}{NiTE y otros middlewares de interés\newline }{section*.20}{}}
\acronymused{FORTH}
\@writefile{lof}{\contentsline {figure}{\numberline {4.40}{\ignorespaces 3D Hand ~\cite  {web3DHand}.}}{50}{figure.4.40}}
\newlabel{fig:3d_hand}{{4.40}{50}{3D Hand ~\cite {web3DHand}}{figure.4.40}{}}
\acronymused{3D}
\citation{webSigmanil}
\@writefile{lof}{\contentsline {figure}{\numberline {4.41}{\ignorespaces Resultado obtenido con KScan3D ~\cite  {webkscan3d}.}}{51}{figure.4.41}}
\newlabel{fig:KScan3D}{{4.41}{51}{Resultado obtenido con KScan3D ~\cite {webkscan3d}}{figure.4.41}{}}
\@writefile{toc}{\contentsline {paragraph}{Evoluci\IeC {\'o}n del framework\newline  }{51}{figure.4.42}}
\acronymused{API}
\acronymused{OpenNI}
\acronymused{SDK}
\citation{webDocumentacionOpenNI}
\@writefile{lof}{\contentsline {figure}{\numberline {4.42}{\ignorespaces Ejemplo de gesto reconocido con SigmaNIL ~\cite  {webSigmanil}.}}{52}{figure.4.42}}
\newlabel{fig:sigmaNIL}{{4.42}{52}{Ejemplo de gesto reconocido con SigmaNIL ~\cite {webSigmanil}}{figure.4.42}{}}
\acronymused{API}
\acronymused{OpenNI}
\acronymused{API}
\acronymused{OpenNI}
\acronymused{OpenNI}
\acronymused{API}
\@writefile{lof}{\contentsline {figure}{\numberline {4.43}{\ignorespaces Evoluci\IeC {\'o}n de la arquitectura \acs {OpenNI} ~\cite  {webDocumentacionOpenNI}.}}{52}{figure.4.43}}
\acronymused{OpenNI}
\newlabel{fig:evolucion_openni}{{4.43}{52}{Evolución de la arquitectura \acs {OpenNI} ~\cite {webDocumentacionOpenNI}}{figure.4.43}{}}
\acronymused{OpenNI}
\@writefile{toc}{\contentsline {paragraph}{Ventajas y desventajas\newline  }{53}{figure.4.43}}
\acronymused{SDK}
\acronymused{OpenNI}
\@writefile{toc}{\contentsline {subparagraph}{Ventajas\newline  }{53}{figure.4.43}}
\acronymused{3D}
\acronymused{API}
\acronymused{GNU}
\acronymused{LGPL}
\acronymused{SDK}
\acronymused{SDK}
\@writefile{toc}{\contentsline {subparagraph}{Desventajas\newline  }{53}{figure.4.43}}
\acronymused{SDK}
\acronymused{OpenNI}
\acronymused{SDK}
\acronymused{SDK}
\acronymused{OpenNI}
\acronymused{OpenNI}
\acronymused{SDK}
\acronymused{SDK}
\@writefile{toc}{\contentsline {subsubsection}{OpenKinect}{54}{figure.4.43}}
\newlabel{OpenKinect}{{4.1.8}{54}{OpenKinect}{figure.4.43}{}}
\acronymused{GPL}
\acronymused{SDK}
\acronymused{OpenNI}
\@writefile{toc}{\contentsline {paragraph}{Descripci\IeC {\'o}n del framework\newline  }{54}{figure.4.43}}
\acronymused{API}
\undonewlabel{acro:JNA}
\newlabel{acro:JNA}{{4.1.8}{54}{Descripción del framework\newline }{section*.21}{}}
\acronymused{JNA}
\undonewlabel{acro:JNI}
\newlabel{acro:JNI}{{4.1.8}{54}{Descripción del framework\newline }{section*.22}{}}
\acronymused{JNI}
\acronymused{API}
\acronymused{JNI}
\acronymused{JNA}
\acronymused{PPM}
\acronymused{PGM}
\@writefile{toc}{\contentsline {paragraph}{Ventajas y desventajas\newline  }{55}{figure.4.43}}
\@writefile{toc}{\contentsline {subparagraph}{Ventajas\newline  }{55}{figure.4.43}}
\acronymused{GPL}
\@writefile{toc}{\contentsline {subparagraph}{Desventajas\newline  }{55}{figure.4.43}}
\citation{Trucco:1998:ITC:551277}
\acronymused{SDK}
\acronymused{OpenNI}
\@writefile{toc}{\contentsline {section}{\numberline {4.2}Visi\IeC {\'o}n por computador}{56}{section.4.2}}
\newlabel{vision_por_computador}{{4.2}{56}{Visión por computador}{section.4.2}{}}
\citation{vezzani2010_281}
\citation{10.1109/AVSS.2009.46}
\@writefile{toc}{\contentsline {subsection}{\numberline {4.2.1}Perspectiva de visi\IeC {\'o}n por computador}{57}{subsection.4.2.1}}
\newlabel{perspectiva_de_visi\IeC {\'o}n_por_computador}{{4.2.1}{57}{Perspectiva de visión por computador}{subsection.4.2.1}{}}
\undonewlabel{acro:HMM}
\newlabel{acro:HMM}{{4.2.1}{57}{Perspectiva de visión por computador}{section*.23}{}}
\acronymused{HMM}
\undonewlabel{acro:GMM}
\newlabel{acro:GMM}{{4.2.1}{57}{Perspectiva de visión por computador}{section*.24}{}}
\acronymused{GMM}
\acronymused{HMM}
\undonewlabel{acro:IEEE}
\newlabel{acro:IEEE}{{4.2.1}{57}{Perspectiva de visión por computador}{section*.25}{}}
\acronymused{IEEE}
\undonewlabel{acro:AVSS}
\newlabel{acro:AVSS}{{4.2.1}{57}{Perspectiva de visión por computador}{section*.26}{}}
\acronymused{AVSS}
\citation{10.1109/CVPR.2008.4587756}
\citation{Ahmad:2008:HAR:1361741.1361851}
\citation{Wang:2008:VLR:1363359.1363378}
\undonewlabel{acro:MHI}
\newlabel{acro:MHI}{{4.2.1}{58}{Perspectiva de visión por computador}{section*.27}{}}
\acronymused{MHI}
\undonewlabel{acro:SOM}
\newlabel{acro:SOM}{{4.2.1}{58}{Perspectiva de visión por computador}{section*.28}{}}
\acronymused{SOM}
\acronymused{HMM}
\acronymused{MHI}
\acronymused{MHI}
\undonewlabel{acro:SIR}
\newlabel{acro:SIR}{{4.2.1}{58}{Perspectiva de visión por computador}{section*.29}{}}
\acronymused{SIR}
\acronymused{HMM}
\undonewlabel{acro:ML}
\newlabel{acro:ML}{{4.2.1}{58}{Perspectiva de visión por computador}{section*.30}{}}
\acronymused{ML}
\acronymused{SVM}
\@writefile{toc}{\contentsline {subsection}{\numberline {4.2.2}Algoritmos de reconocimiento de acciones basados en v\IeC {\'\i }deo}{58}{subsection.4.2.2}}
\newlabel{algoritmos_de_reconocimiento_de_acciones_basados_en_v\IeC {\'\i }deo}{{4.2.2}{58}{Algoritmos de reconocimiento de acciones basados en vídeo}{subsection.4.2.2}{}}
\acronymused{HMM}
\acronymused{BoW}
\undonewlabel{acro:CLG}
\newlabel{acro:CLG}{{4.2.2}{58}{Algoritmos de reconocimiento de acciones basados en vídeo}{section*.31}{}}
\acronymused{CLG}
\acronymused{HMM}
\citation{HARUStC:2009}
\citation{Lewandowski:2010:VSA:1888212.1888254}
\citation{10.1109/CVPR.2008.4587756}
\undonewlabel{acro:LPP}
\newlabel{acro:LPP}{{4.2.2}{59}{Algoritmos de reconocimiento de acciones basados en vídeo}{section*.32}{}}
\acronymused{LPP}
\acronymused{GMM}
\acronymused{HMM}
\undonewlabel{acro:TVTL}
\newlabel{acro:TVTL}{{4.2.2}{59}{Algoritmos de reconocimiento de acciones basados en vídeo}{section*.33}{}}
\acronymused{TVTL}
\undonewlabel{acro:LTM}
\newlabel{acro:LTM}{{4.2.2}{59}{Algoritmos de reconocimiento de acciones basados en vídeo}{section*.34}{}}
\acronymused{LTM}
\undonewlabel{acro:DTM}
\newlabel{acro:DTM}{{4.2.2}{59}{Algoritmos de reconocimiento de acciones basados en vídeo}{section*.35}{}}
\acronymused{DTM}
\undonewlabel{acro:TTM}
\newlabel{acro:TTM}{{4.2.2}{59}{Algoritmos de reconocimiento de acciones basados en vídeo}{section*.36}{}}
\acronymused{TTM}
\acronymused{TTM}
\acronymused{DTM}
\citation{Kuehne11}
\citation{Nebel:2011:CMC:2045195.2045230}
\@writefile{lot}{\contentsline {table}{\numberline {4.2}{\ignorespaces Conjuntos de datos existentes, el n\IeC {\'u}mero de categor\IeC {\'\i }as y el n\IeC {\'u}mero de clips por categor\IeC {\'\i }a ordenados por a\IeC {\~n}o}}{60}{table.4.2}}
\newlabel{table:tabla_comparativa_datasets}{{4.2}{60}{Conjuntos de datos existentes, el número de categorías y el número de clips por categoría ordenados por año}{table.4.2}{}}
\acronymused{BoW}
\citation{borenstein2012making}
\@writefile{toc}{\contentsline {chapter}{\numberline {A}Listados de los ejemplos con Processing}{63}{appendix.Alph1}}
\@writefile{lof}{\addvspace {10\p@ }}
\@writefile{lot}{\addvspace {10\p@ }}
\newlabel{chap:anexo1}{{A}{63}{Listados de los ejemplos con Processing}{appendix.Alph1}{}}
\@writefile{toc}{\contentsline {section}{\numberline {A.1}Ejemplo 1}{63}{section.Alph1.1}}
\newlabel{code:processing_ejem1}{{A.1}{63}{«Ejemplo 1» ~\cite {borenstein2012making}}{lstlisting.Alph1.1}{}}
\@writefile{lol}{\contentsline {lstlisting}{\numberline {A.1}\IeC {\guillemotleft }Ejemplo 1\IeC {\guillemotright } ~\cite  {borenstein2012making}}{63}{lstlisting.Alph1.1}}
\citation{borenstein2012making}
\@writefile{toc}{\contentsline {section}{\numberline {A.2}Ejemplo 2}{64}{section.Alph1.2}}
\newlabel{code:processing_ejem2}{{A.2}{64}{«Ejemplo 2» ~\cite {borenstein2012making}}{lstlisting.Alph1.2}{}}
\@writefile{lol}{\contentsline {lstlisting}{\numberline {A.2}\IeC {\guillemotleft }Ejemplo 2\IeC {\guillemotright } ~\cite  {borenstein2012making}}{64}{lstlisting.Alph1.2}}
\citation{borenstein2012making}
\@writefile{toc}{\contentsline {section}{\numberline {A.3}Primer ejemplo de nube de puntos}{65}{section.Alph1.3}}
\newlabel{code:processing_nube_puntos_1}{{A.3}{65}{«Primer ejemplo Nube de puntos» ~\cite {borenstein2012making}}{lstlisting.Alph1.3}{}}
\@writefile{lol}{\contentsline {lstlisting}{\numberline {A.3}\IeC {\guillemotleft }Primer ejemplo Nube de puntos\IeC {\guillemotright } ~\cite  {borenstein2012making}}{65}{lstlisting.Alph1.3}}
\citation{borenstein2012making}
\@writefile{toc}{\contentsline {section}{\numberline {A.4}Primer ejemplo de nube de puntos con movimiento}{66}{section.Alph1.4}}
\newlabel{code:processing_nube_puntos_2}{{A.4}{66}{«Primer ejemplo Nube de puntos con movimiento» ~\cite {borenstein2012making}}{lstlisting.Alph1.4}{}}
\@writefile{lol}{\contentsline {lstlisting}{\numberline {A.4}\IeC {\guillemotleft }Primer ejemplo Nube de puntos con movimiento\IeC {\guillemotright } ~\cite  {borenstein2012making}}{66}{lstlisting.Alph1.4}}
\citation{borenstein2012making}
\@writefile{toc}{\contentsline {section}{\numberline {A.5}Primer ejemplo de nube de puntos a color}{67}{section.Alph1.5}}
\newlabel{code:processing_nube_puntos_3}{{A.5}{67}{«Primer ejemplo Nube de puntos a color» ~\cite {borenstein2012making}}{lstlisting.Alph1.5}{}}
\@writefile{lol}{\contentsline {lstlisting}{\numberline {A.5}\IeC {\guillemotleft }Primer ejemplo Nube de puntos a color\IeC {\guillemotright } ~\cite  {borenstein2012making}}{67}{lstlisting.Alph1.5}}
\@writefile{toc}{\contentsline {section}{\numberline {A.6}Dibujando con Kinect}{68}{section.Alph1.6}}
\newlabel{code:processing_dibujando_con_kinect}{{A.6}{68}{«Dibujando con Kinect» ~\cite {borenstein2012making}}{lstlisting.Alph1.6}{}}
\@writefile{lol}{\contentsline {lstlisting}{\numberline {A.6}\IeC {\guillemotleft }Dibujando con Kinect\IeC {\guillemotright } ~\cite  {borenstein2012making}}{68}{lstlisting.Alph1.6}}
\citation{borenstein2012making}
\@writefile{toc}{\contentsline {section}{\numberline {A.7}\IeC {\'A}lbum de fotos}{70}{section.Alph1.7}}
\newlabel{code:processing_album_de_fotos}{{A.7}{70}{«Álbum de fotos» ~\cite {borenstein2012making}}{lstlisting.Alph1.7}{}}
\@writefile{lol}{\contentsline {lstlisting}{\numberline {A.7}\IeC {\guillemotleft }\IeC {\'A}lbum de fotos\IeC {\guillemotright } ~\cite  {borenstein2012making}}{70}{lstlisting.Alph1.7}}
\citation{borenstein2012making}
\@writefile{toc}{\contentsline {section}{\numberline {A.8}Bater\IeC {\'\i }a musical}{72}{section.Alph1.8}}
\newlabel{code:bateria_musical_hotpoint}{{A.8}{72}{Clase Hotpoint de la aplicación «Batería musical» ~\cite {borenstein2012making}}{lstlisting.Alph1.8}{}}
\@writefile{lol}{\contentsline {lstlisting}{\numberline {A.8}Clase Hotpoint de la aplicaci\IeC {\'o}n \IeC {\guillemotleft }Bater\IeC {\'\i }a musical\IeC {\guillemotright } ~\cite  {borenstein2012making}}{72}{lstlisting.Alph1.8}}
\citation{borenstein2012making}
\newlabel{code:bateria_musical_main}{{A.9}{73}{Clase principal de la aplicación «Batería musical» ~\cite {borenstein2012making}}{lstlisting.Alph1.9}{}}
\@writefile{lol}{\contentsline {lstlisting}{\numberline {A.9}Clase principal de la aplicaci\IeC {\'o}n \IeC {\guillemotleft }Bater\IeC {\'\i }a musical\IeC {\guillemotright } ~\cite  {borenstein2012making}}{73}{lstlisting.Alph1.9}}
\citation{borenstein2012making}
\bibdata{main}
