\relax 
\providecommand\hyper@newdestlabel[2]{}
\catcode `"\active 
\catcode `<\active 
\catcode `>\active 
\@nameuse{es@quoting}
\providecommand\HyperFirstAtBeginDocument{\AtBeginDocument}
\HyperFirstAtBeginDocument{\ifx\hyper@anchor\@undefined
\global\let\oldcontentsline\contentsline
\gdef\contentsline#1#2#3#4{\oldcontentsline{#1}{#2}{#3}}
\global\let\oldnewlabel\newlabel
\gdef\newlabel#1#2{\newlabelxx{#1}#2}
\gdef\newlabelxx#1#2#3#4#5#6{\oldnewlabel{#1}{{#2}{#3}}}
\AtEndDocument{\ifx\hyper@anchor\@undefined
\let\contentsline\oldcontentsline
\let\newlabel\oldnewlabel
\fi}
\fi}
\global\let\hyper@last\relax 
\gdef\HyperFirstAtBeginDocument#1{#1}
\providecommand\HyField@AuxAddToFields[1]{}
\providecommand\HyField@AuxAddToCoFields[2]{}
\bibstyle{es-alpha}
\reset@newl@bel
\select@language{spanish}
\@writefile{toc}{\select@language{spanish}}
\@writefile{lof}{\select@language{spanish}}
\@writefile{lot}{\select@language{spanish}}
\@writefile{toc}{\contentsline {chapter}{Resumen}{\es@scroman  {v}}{chapter*.1}}
\@writefile{lof}{\addvspace {10\p@ }}
\@writefile{lot}{\addvspace {10\p@ }}
\undonewlabel{acro:BoW}
\newlabel{acro:BoW}{{}{\es@scroman  {v}}{Resumen}{section*.2}{}}
\acronymused{BoW}
\@writefile{toc}{\contentsline {chapter}{Abstract}{\es@scroman  {vii}}{chapter*.3}}
\@writefile{lof}{\addvspace {10\p@ }}
\@writefile{lot}{\addvspace {10\p@ }}
\acronymused{BoW}
\@writefile{toc}{\contentsline {chapter}{Agradecimientos}{\es@scroman  {ix}}{chapter*.4}}
\@writefile{lof}{\addvspace {10\p@ }}
\@writefile{lot}{\addvspace {10\p@ }}
\@writefile{toc}{\contentsline {chapter}{\'Indice general}{\es@scroman  {xiii}}{chapter*.5}}
\acronymused{SDK}
\acronymused{OpenNI}
\citation{MartinezDelRincon:2013:CRH:2537174.2537391}
\citation{MartinezDelRincon:2013:CRH:2537174.2537391}
\@writefile{toc}{\contentsline {chapter}{\'{I}ndice de cuadros}{\es@scroman  {xix}}{chapter*.6}}
\acronymused{PPM}
\acronymused{JPEG}
\citation{webMicrosoft}
\citation{webWiiMote}
\citation{webPlayStation}
\citation{webMinorityReport}
\citation{webWiiMoteaxis}
\citation{webb2012beginning}
\citation{webb2012beginning}
\citation{webJohnnyLee}
\citation{webUSBbeagle480}
\citation{webCoolerVideoconferencing}
\citation{webPrincessLeia}
\citation{wbUbiInteractive}
\citation{webFitnect}
\citation{wbTedcas}
\citation{wbVirtualRehab}
\citation{webRiverCrossing}
\citation{webKinectmath}
\citation{webjumpido}
\citation{webNAVI}
\citation{webSignLanguageTranslator}
\citation{webDocumentacionKinect}
\citation{webDocumentacionKinect}
\citation{webDocumentacionKinect}
\citation{borenstein2012making}
\citation{webDocumentacionKinect}
\@writefile{toc}{\contentsline {chapter}{\'{I}ndice de figuras}{\es@scroman  {xxi}}{chapter*.7}}
\citation{webDocumentacionSDK}
\citation{webDocumentacionSDK}
\citation{webDocumentacionSDK}
\citation{webDocumentacionSDK}
\citation{webDocumentacionSDK}
\citation{webDocumentacionSDK}
\citation{webb2012beginning}
\citation{webAxusXtion}
\citation{webDocumentacionOpenNI}
\citation{webTomoto}
\citation{web3DHand}
\citation{webkscan3d}
\citation{webSigmanil}
\citation{webDocumentacionOpenNI}
\citation{webfaseScrum}
\citation{webfaseScrum}
\citation{wbTeoPark}
\citation{borenstein2012making}
\citation{borenstein2012making}
\citation{webProcessing}
\citation{webProcessing}
\citation{borenstein2012making}
\acronymused{SDK}
\acronymused{SDK}
\acronymused{SDK}
\acronymused{SDK}
\acronymused{OpenNI}
\acronymused{OpenNI}
\acronymused{3D}
\citation{webDocumentacionOpenNI}
\citation{webDocumentacionOpenNI}
\acronymused{PPM}
\acronymused{JPEG}
\acronymused{PPM}
\acronymused{JPEG}
\acronymused{SVM}
\citation{wbIxmas}
\acronymused{IXMAS}
\citation{borenstein2012making}
\citation{borenstein2012making}
\citation{borenstein2012making}
\citation{borenstein2012making}
\citation{borenstein2012making}
\citation{borenstein2012making}
\citation{borenstein2012making}
\citation{borenstein2012making}
\citation{borenstein2012making}
\@writefile{toc}{\contentsline {chapter}{\IeC {\'I}ndice de listados}{\es@scroman  {xxv}}{chapter*.8}}
\acronymused{PPM}
\acronymused{XML}
\acronymused{SVM}
\acronymused{SVM}
\@writefile{toc}{\contentsline {chapter}{Listado de acr\IeC {\'o}nimos}{\es@scroman  {xxvii}}{chapter*.9}}
\@writefile{lof}{\addvspace {10\p@ }}
\@writefile{lot}{\addvspace {10\p@ }}
\newacro{KinBehR}[\AC@hyperlink{KinBehR}{KinBehR}]{KINect for human BEHaviour Recognition}
\newacro{HAR}[\AC@hyperlink{HAR}{HAR}]{Human Activity Recognition}
\newacro{BSD}[\AC@hyperlink{BSD}{BSD}]{Berkeley Software Distribution}
\newacro{MSR}[\AC@hyperlink{MSR}{MSR}]{Microsoft Research}
\newacro{SDK}[\AC@hyperlink{SDK}{SDK}]{Software Development Kit}
\newacro{NAVI}[\AC@hyperlink{NAVI}{NAVI}]{Navigational Aids fot the Visually Impaired}
\newacro{TOF}[\AC@hyperlink{TOF}{TOF}]{Time-Of-Flight}
\newacro{TFG}[\AC@hyperlink{TFG}{TFG}]{Trabajo Fin de Grado}
\newacro{HMM}[\AC@hyperlink{HMM}{HMM}]{Hidden Markov Models}
\newacro{GMM}[\AC@hyperlink{GMM}{GMM}]{Modelos de Mezclas Gaussianas}
\newacro{IEEE}[\AC@hyperlink{IEEE}{IEEE}]{Institute of Electrical and Electronics Engineers}
\newacro{AVSS}[\AC@hyperlink{AVSS}{AVSS}]{Advanced Video and Signal Based Surveillance}
\newacro{MHI}[\AC@hyperlink{MHI}{MHI}]{Motion History Images}
\newacro{SOM}[\AC@hyperlink{SOM}{SOM}]{Kohonen Self Organizing feature Map}
\newacro{SIR}[\AC@hyperlink{SIR}{SIR}]{Sampling Importance Resampling}
\newacro{ML}[\AC@hyperlink{ML}{ML}]{Maximum Likelihood}
\newacro{SVM}[\AC@hyperlink{SVM}{SVM}]{Support Vector Machines}
\newacro{BoW}[\AC@hyperlink{BoW}{BoW}]{Bag of Words}
\newacro{CLG}[\AC@hyperlink{CLG}{CLG}]{Combined Local-Global}
\newacro{LPP}[\AC@hyperlink{LPP}{LPP}]{Locality Preserving Projections}
\newacro{TVTL}[\AC@hyperlink{TVTL}{TVTL}]{Temporal-Vector Trajectory Learning}
\newacro{LTM}[\AC@hyperlink{LTM}{LTM}]{Locations\IeC {\textquoteright } Temporal motion of Mahalanobis distance}
\newacro{DTM}[\AC@hyperlink{DTM}{DTM}]{Difference\IeC {\textquoteright } Temporal motion of Mahalanobis distance}
\newacro{TTM}[\AC@hyperlink{TTM}{TTM}]{Trajectory Temporal motion of Mahalanobis distance}
\newacro{IN}[\AC@hyperlink{IN}{IN}]{Internaci\IeC {\'o}n Natural}
\newacro{API}[\AC@hyperlink{API}{API}]{Application Programming Interface}
\newacro{LGPL}[\AC@hyperlink{LGPL}{LGPL}]{Lesser General Public License }
\newacro{OpenNI}[\AC@hyperlink{OpenNI}{OpenNI}]{Open Natural Interaction}
\newacro{3D}[\AC@hyperlink{3D}{3D}]{Tres dimensiones}
\newacro{IDE}[\AC@hyperlink{IDE}{IDE}]{Integrated Development Environment}
\newacro{CPU}[\AC@hyperlink{CPU}{CPU}]{Central Processing Unit}
\newacro{FORTH}[\AC@hyperlink{FORTH}{FORTH}]{Foundation for Research and Technology-Hellas}
\newacro{DMO}[\AC@hyperlink{DMO}{DMO}]{DirectX Media Objec}
\newacro{USB}[\AC@hyperlink{USB}{USB}]{Universal Serial Bus}
\newacro{NUI}[\AC@hyperlink{NUI}{NUI}]{Natural User Interface}
\newacro{RAM}[\AC@hyperlink{RAM}{RAM}]{Random Access Memory}
\newacro{HTML}[\AC@hyperlink{HTML}{HTML}]{HyperText Markup Language}
\newacro{GPL}[\AC@hyperlink{GPL}{GPL}]{General Public License}
\newacro{JNA}[\AC@hyperlink{JNA}{JNA}]{Java Native Access}
\newacro{JNI}[\AC@hyperlink{JNI}{JNI}]{Java Native Interface}
\newacro{GLUT}[\AC@hyperlink{GLUT}{GLUT}]{OpenGL Utility Toolkit}
\newacro{ANSI}[\AC@hyperlink{ANSI}{ANSI}]{American National Standards Institute}
\newacro{FORTRAN}[\AC@hyperlink{FORTRAN}{FORTRAN}]{Formula Translating System}
\newacro{PPM}[\AC@hyperlink{PPM}{PPM}]{Portable PixMap format}
\newacro{PGM}[\AC@hyperlink{PGM}{PGM}]{Portable Gray Map}
\newacro{ASCII}[\AC@hyperlink{ASCII}{ASCII}]{American Standard Code for Information Interchange}
\newacro{POSIX}[\AC@hyperlink{POSIX}{POSIX}]{Portable Operating System Interface}
\newacro{JPEG}[\AC@hyperlink{JPEG}{JPEG}]{Joint Photographic Experts Group}
\newacro{XML}[\AC@hyperlink{XML}{XML}]{eXtensible Markup Language}
\newacro{IXMAS}[\AC@hyperlink{IXMAS}{IXMAS}]{INRIA Xmas Motion Acquisition Sequences}
\newacro{PERL}[\AC@hyperlink{PERL}{PERL}]{Practical Extraction and Report Language}
\newacro{GUI}[\AC@hyperlink{GUI}{GUI}]{Graphical User Interface}
\newacro{INRIA}[\AC@hyperlink{INRIA}{INRIA}]{Institut National de Recherche en Informatique et en Automatique}
\newacro{STIP}[\AC@hyperlink{STIP}{STIP}]{Space-time Interest Points}
\newacro{HOF}[\AC@hyperlink{HOF}{HOF}]{Histograms of Optical Flow}
\newacro{HOG}[\AC@hyperlink{HOG}{HOG}]{Histograms of Oriented Gradients}
\newacro{LUT}[\AC@hyperlink{LUT}{LUT}]{Look Up Table}
\newacro{KDE}[\AC@hyperlink{KDE}{KDE}]{K Desktop Environment}
\newacro{GCC}[\AC@hyperlink{GCC}{GCC}]{GNU Compiler Collection}
\acronymused{GNU}
\newacro{GNU}[\AC@hyperlink{GNU}{GNU}]{\acs {GNU} is Not Unix}
\newacro{OO}[\AC@hyperlink{OO}{OO}]{Orientaci\IeC {\'o}n a Objetos}
\newacro{RPC}[\AC@hyperlink{RPC}{RPC}]{Remote Procedure Call}
\citation{Xu:2012:CHA:2223949.2224075}
\citation{Anguita:2012:HAR:2437855.2437888}
\@writefile{toc}{\contentsline {chapter}{\numberline {1}Introducci\IeC {\'o}n}{1}{chapter.1}}
\@writefile{lof}{\addvspace {10\p@ }}
\@writefile{lot}{\addvspace {10\p@ }}
\citation{Nebel:2011:CMC:2045195.2045230}
\citation{Joachims98textcategorization}
\citation{Tong:2002:SVM:944790.944793}
\citation{Lodhi:2002:TCU:944790.944799}
\citation{Cristianini:2002:LSK:607586.607620}
\citation{Zhu:2002:TKI:506309.506313}
\citation{kaaniche:inria-00486110}
\citation{10.1109/CVPR.2008.4587527}
\citation{LaptevP07}
\citation{weinland:inria-00544741}
\citation{10.1109/CVPR.2008.4587737}
\citation{MartinezDelRincon:2013:CRH:2537174.2537391}
\acronymused{BoW}
\acronymused{BoW}
\acronymused{BoW}
\acronymused{BoW}
\acronymused{BoW}
\@writefile{toc}{\contentsline {section}{\numberline {1.1}Estructura del documento}{4}{section.1.1}}
\acronymused{TFG}
\@writefile{toc}{\contentsline {chapter}{\numberline {2}Objetivos}{5}{chapter.2}}
\@writefile{lof}{\addvspace {10\p@ }}
\@writefile{lot}{\addvspace {10\p@ }}
\newlabel{chap:objetivos}{{2}{5}{Objetivos}{chapter.2}{}}
\@writefile{toc}{\contentsline {section}{\numberline {2.1}Objetivo general}{5}{section.2.1}}
\newlabel{objetivo_general}{{2.1}{5}{Objetivo general}{section.2.1}{}}
\undonewlabel{acro:SVM}
\newlabel{acro:SVM}{{2.1}{5}{Objetivo general}{section*.10}{}}
\acronymused{SVM}
\@writefile{toc}{\contentsline {subsection}{\numberline {2.1.1}Objetivos espec\IeC {\'\i }ficos}{5}{subsection.2.1.1}}
\newlabel{objetivos_espec\IeC {\'\i }ficos}{{2.1.1}{5}{Objetivos específicos}{subsection.2.1.1}{}}
\acronymused{KinBehR}
\acronymused{BoW}
\acronymused{SVM}
\acronymused{SVM}
\@writefile{toc}{\contentsline {chapter}{\numberline {3}Objectives}{9}{chapter.3}}
\@writefile{lof}{\addvspace {10\p@ }}
\@writefile{lot}{\addvspace {10\p@ }}
\newlabel{chap:objetives}{{3}{9}{Objectives}{chapter.3}{}}
\@writefile{toc}{\contentsline {section}{\numberline {3.1}General objective}{9}{section.3.1}}
\acronymused{SVM}
\@writefile{toc}{\contentsline {subsection}{\numberline {3.1.1}Specific objectives}{9}{subsection.3.1.1}}
\acronymused{KinBehR}
\acronymused{BoW}
\acronymused{SVM}
\acronymused{SVM}
\citation{webMicrosoft}
\@writefile{toc}{\contentsline {chapter}{\numberline {4}Antecedentes}{13}{chapter.4}}
\@writefile{lof}{\addvspace {10\p@ }}
\@writefile{lot}{\addvspace {10\p@ }}
\newlabel{chap:antecedentes}{{4}{13}{Antecedentes}{chapter.4}{}}
\@writefile{toc}{\contentsline {section}{\numberline {4.1}Kinect para Xbox 360}{13}{section.4.1}}
\newlabel{kinect_antecedentes}{{4.1}{13}{Kinect para Xbox 360}{section.4.1}{}}
\@writefile{toc}{\contentsline {subsection}{\numberline {4.1.1}Introducci\IeC {\'o}n}{13}{subsection.4.1.1}}
\newlabel{introduccion_kinect}{{4.1.1}{13}{Introducción}{subsection.4.1.1}{}}
\citation{webWiiMote}
\citation{webPlayStation}
\@writefile{lof}{\contentsline {figure}{\numberline {4.1}{\ignorespaces Kinect para Xbox 360 ~\cite  {webMicrosoft}.}}{14}{figure.4.1}}
\newlabel{fig:kinect_xbox_360}{{4.1}{14}{Kinect para Xbox 360 ~\cite {webMicrosoft}}{figure.4.1}{}}
\@writefile{toc}{\contentsline {subsection}{\numberline {4.1.2}La creaci\IeC {\'o}n de Kinect}{14}{subsection.4.1.2}}
\newlabel{creacion_de_kinect}{{4.1.2}{14}{La creación de Kinect}{subsection.4.1.2}{}}
\@writefile{lof}{\contentsline {figure}{\numberline {4.2}{\ignorespaces Wiimote para Wii ~\cite  {webWiiMote}.}}{15}{figure.4.2}}
\newlabel{fig:wiimote}{{4.2}{15}{Wiimote para Wii ~\cite {webWiiMote}}{figure.4.2}{}}
\@writefile{lof}{\contentsline {figure}{\numberline {4.3}{\ignorespaces PlayStation Move para PlayStation 3 ~\cite  {webPlayStation}.}}{15}{figure.4.3}}
\newlabel{fig:playStationMove}{{4.3}{15}{PlayStation Move para PlayStation 3 ~\cite {webPlayStation}}{figure.4.3}{}}
\@writefile{toc}{\contentsline {subsubsection}{\numberline {4.1.2.1}Precedentes}{15}{subsubsection.4.1.2.1}}
\newlabel{precedentes_kinect}{{4.1.2.1}{15}{Precedentes}{subsubsection.4.1.2.1}{}}
\citation{webMinorityReport}
\citation{webWiiMoteaxis}
\@writefile{lof}{\contentsline {figure}{\numberline {4.4}{\ignorespaces Escena de \textit  {``Minority Report''} ~\cite  {webMinorityReport}.}}{17}{figure.4.4}}
\newlabel{fig:minority_report}{{4.4}{17}{Escena de \textit {``Minority Report''} ~\cite {webMinorityReport}}{figure.4.4}{}}
\@writefile{toc}{\contentsline {subsubsection}{\numberline {4.1.2.2}Evoluci\IeC {\'o}n}{17}{subsubsection.4.1.2.2}}
\newlabel{evolucion_kinect}{{4.1.2.2}{17}{Evolución}{subsubsection.4.1.2.2}{}}
\@writefile{lof}{\contentsline {figure}{\numberline {4.5}{\ignorespaces Disposici\IeC {\'o}n del dispositivo Wiimote ~\cite  {webWiiMoteaxis}.}}{18}{figure.4.5}}
\newlabel{fig:3ejes_wiimote}{{4.5}{18}{Disposición del dispositivo Wiimote ~\cite {webWiiMoteaxis}}{figure.4.5}{}}
\citation{webb2012beginning}
\citation{webb2012beginning}
\undonewlabel{acro:MSR}
\newlabel{acro:MSR}{{4.1.2.2}{19}{Evolución}{section*.11}{}}
\acronymused{MSR}
\@writefile{lof}{\contentsline {figure}{\numberline {4.6}{\ignorespaces \textit  {Player blob} ~\cite  {webb2012beginning}.}}{20}{figure.4.6}}
\newlabel{fig:player_bob}{{4.6}{20}{\textit {Player blob} ~\cite {webb2012beginning}}{figure.4.6}{}}
\@writefile{lof}{\contentsline {figure}{\numberline {4.7}{\ignorespaces \textit  {Player blob} dividido en partes ~\cite  {webb2012beginning}.}}{20}{figure.4.7}}
\newlabel{fig:player_blob_partes}{{4.7}{20}{\textit {Player blob} dividido en partes ~\cite {webb2012beginning}}{figure.4.7}{}}
\@writefile{toc}{\contentsline {subsubsection}{\numberline {4.1.2.3}Homebrew de Kinect}{21}{subsubsection.4.1.2.3}}
\newlabel{hackeo_kinect}{{4.1.2.3}{21}{Homebrew de Kinect}{subsubsection.4.1.2.3}{}}
\acronymused{OpenNI}
\citation{webJohnnyLee}
\@writefile{lof}{\contentsline {figure}{\numberline {4.8}{\ignorespaces Johnny Lee mostrando las modificaciones al Wii Remote ~\cite  {webJohnnyLee}.}}{22}{figure.4.8}}
\newlabel{fig:Johnny_Chung_Lee}{{4.8}{22}{Johnny Lee mostrando las modificaciones al Wii Remote ~\cite {webJohnnyLee}}{figure.4.8}{}}
\citation{webUSBbeagle480}
\@writefile{lof}{\contentsline {figure}{\numberline {4.9}{\ignorespaces Analizador de USB Beagle 480 ~\cite  {webUSBbeagle480}.}}{23}{figure.4.9}}
\newlabel{fig:beagle_480}{{4.9}{23}{Analizador de USB Beagle 480 ~\cite {webUSBbeagle480}}{figure.4.9}{}}
\acronymused{OpenNI}
\acronymused{OpenNI}
\undonewlabel{acro:SDK}
\newlabel{acro:SDK}{{4.1.2.3}{23}{Homebrew de Kinect}{section*.12}{}}
\acronymused{SDK}
\citation{webCoolerVideoconferencing}
\citation{webCoolerVideoconferencing}
\citation{webPrincessLeia}
\@writefile{toc}{\contentsline {subsection}{\numberline {4.1.3}Desarrollo de aplicaciones alternativas}{24}{subsection.4.1.3}}
\@writefile{lof}{\contentsline {figure}{\numberline {4.10}{\ignorespaces Kinect for Cooler Videoconferencing ~\cite  {webCoolerVideoconferencing}.}}{24}{figure.4.10}}
\newlabel{fig:Kinect_Videoconferencing}{{4.10}{24}{Kinect for Cooler Videoconferencing ~\cite {webCoolerVideoconferencing}}{figure.4.10}{}}
\citation{webPrincessLeia}
\@writefile{lof}{\contentsline {figure}{\numberline {4.11}{\ignorespaces Real-Time Princess Leia Holography Via Kinect Hack ~\cite  {webPrincessLeia}.}}{25}{figure.4.11}}
\newlabel{fig:Leia-Hologram-in-pieces}{{4.11}{25}{Real-Time Princess Leia Holography Via Kinect Hack ~\cite {webPrincessLeia}}{figure.4.11}{}}
\citation{wbUbiInteractive}
\citation{wbUbiInteractive}
\citation{webFitnect}
\citation{webFitnect}
\citation{wbTedcas}
\@writefile{toc}{\contentsline {subsubsection}{\numberline {4.1.3.1}Ocio}{26}{subsubsection.4.1.3.1}}
\@writefile{lof}{\contentsline {figure}{\numberline {4.12}{\ignorespaces Ubi Interactive ~\cite  {wbUbiInteractive}.}}{26}{figure.4.12}}
\newlabel{fig:Ubi_interactive}{{4.12}{26}{Ubi Interactive ~\cite {wbUbiInteractive}}{figure.4.12}{}}
\@writefile{lof}{\contentsline {figure}{\numberline {4.13}{\ignorespaces Fitnect ~\cite  {webFitnect}.}}{26}{figure.4.13}}
\newlabel{fig:fitnect}{{4.13}{26}{Fitnect ~\cite {webFitnect}}{figure.4.13}{}}
\citation{wbTedcas}
\citation{wbVirtualRehab}
\citation{wbVirtualRehab}
\citation{webKinectEducation}
\@writefile{toc}{\contentsline {subsubsection}{\numberline {4.1.3.2}Medicina}{27}{subsubsection.4.1.3.2}}
\@writefile{lof}{\contentsline {figure}{\numberline {4.14}{\ignorespaces TedCas ~\cite  {wbTedcas}.}}{27}{figure.4.14}}
\newlabel{fig:Tedcas}{{4.14}{27}{TedCas ~\cite {wbTedcas}}{figure.4.14}{}}
\@writefile{lof}{\contentsline {figure}{\numberline {4.15}{\ignorespaces VirtualRehab ~\cite  {wbVirtualRehab}.}}{27}{figure.4.15}}
\newlabel{fig:VirtualRehab}{{4.15}{27}{VirtualRehab ~\cite {wbVirtualRehab}}{figure.4.15}{}}
\@writefile{toc}{\contentsline {subsubsection}{\numberline {4.1.3.3}Educaci\IeC {\'o}n}{27}{subsubsection.4.1.3.3}}
\citation{webRiverCrossing}
\citation{webKinectmath}
\citation{webjumpido}
\citation{webjumpido}
\citation{webNAVI}
\@writefile{lof}{\contentsline {figure}{\numberline {4.16}{\ignorespaces Juego \textit  {River Corssing} ~\cite  {webRiverCrossing}.}}{28}{figure.4.16}}
\newlabel{fig:river_crossing}{{4.16}{28}{Juego \textit {River Corssing} ~\cite {webRiverCrossing}}{figure.4.16}{}}
\@writefile{toc}{\contentsline {subsubsection}{\numberline {4.1.3.4}Accesibilidad}{28}{subsubsection.4.1.3.4}}
\undonewlabel{acro:NAVI}
\newlabel{acro:NAVI}{{4.1.3.4}{28}{Accesibilidad}{section*.13}{}}
\acronymused{NAVI}
\citation{webNAVI}
\citation{webSignLanguageTranslator}
\@writefile{lof}{\contentsline {figure}{\numberline {4.17}{\ignorespaces \textit  {Kinect Math} ~\cite  {webKinectmath}.}}{29}{figure.4.17}}
\newlabel{fig:kinect_math}{{4.17}{29}{\textit {Kinect Math} ~\cite {webKinectmath}}{figure.4.17}{}}
\@writefile{lof}{\contentsline {figure}{\numberline {4.18}{\ignorespaces Actividad \textit  {``Baskets''} integrada en la plataforma Jumpido ~\cite  {webjumpido}.}}{29}{figure.4.18}}
\newlabel{fig:jumpido}{{4.18}{29}{Actividad \textit {``Baskets''} integrada en la plataforma Jumpido ~\cite {webjumpido}}{figure.4.18}{}}
\acronymused{MSR}
\@writefile{lof}{\contentsline {figure}{\numberline {4.19}{\ignorespaces NAVI (Navigational Aids fot the Visually Impaired) ~\cite  {webNAVI}.}}{30}{figure.4.19}}
\newlabel{fig:navi}{{4.19}{30}{NAVI (Navigational Aids fot the Visually Impaired) ~\cite {webNAVI}}{figure.4.19}{}}
\@writefile{lof}{\contentsline {figure}{\numberline {4.20}{\ignorespaces Kinect Sign Language Translator ~\cite  {webSignLanguageTranslator}.}}{30}{figure.4.20}}
\newlabel{fig:Kinect-lenguaje-signos}{{4.20}{30}{Kinect Sign Language Translator ~\cite {webSignLanguageTranslator}}{figure.4.20}{}}
\@writefile{toc}{\contentsline {subsection}{\numberline {4.1.4}Caracter\IeC {\'\i }sticas t\IeC {\'e}cnicas}{30}{subsection.4.1.4}}
\newlabel{caracteristicas_tecnicas_kinect}{{4.1.4}{30}{Características técnicas}{subsection.4.1.4}{}}
\citation{webDocumentacionKinect}
\citation{webDocumentacionKinect}
\@writefile{lot}{\contentsline {table}{\numberline {4.1}{\ignorespaces Especificaci\IeC {\'o}n t\IeC {\'e}cnica Kinect.}}{31}{table.4.1}}
\newlabel{table:tabla_tecnica_kinect}{{4.1}{31}{Especificación técnica Kinect}{table.4.1}{}}
\@writefile{lof}{\contentsline {figure}{\numberline {4.21}{\ignorespaces Distribuci\IeC {\'o}n de los componentes en Kinect ~\cite  {webDocumentacionKinect}.}}{32}{figure.4.21}}
\newlabel{fig:partes_kinect}{{4.21}{32}{Distribución de los componentes en Kinect ~\cite {webDocumentacionKinect}}{figure.4.21}{}}
\@writefile{lof}{\contentsline {figure}{\numberline {4.22}{\ignorespaces Distancia para el reconocimiento del esqueleto en Kinect ~\cite  {webDocumentacionKinect}.}}{32}{figure.4.22}}
\newlabel{fig:near_mode}{{4.22}{32}{Distancia para el reconocimiento del esqueleto en Kinect ~\cite {webDocumentacionKinect}}{figure.4.22}{}}
\@writefile{toc}{\contentsline {subsubsection}{\numberline {4.1.4.1}Segunda generaci\IeC {\'o}n de Kinect}{32}{subsubsection.4.1.4.1}}
\citation{webDocumentacionKinect}
\undonewlabel{acro:TOF}
\newlabel{acro:TOF}{{4.1.4.1}{33}{Segunda generación de Kinect}{section*.14}{}}
\acronymused{TOF}
\acronymused{TOF}
\@writefile{lof}{\contentsline {figure}{\numberline {4.23}{\ignorespaces Segunda generaci\IeC {\'o}n de Kinect ~\cite  {webDocumentacionKinect}.}}{33}{figure.4.23}}
\newlabel{fig:kinect_segunda_generacion}{{4.23}{33}{Segunda generación de Kinect ~\cite {webDocumentacionKinect}}{figure.4.23}{}}
\acronymused{TFG}
\@writefile{toc}{\contentsline {subsection}{\numberline {4.1.5}Ventajas de Kinect frente a otros dispositivos}{34}{subsection.4.1.5}}
\@writefile{toc}{\contentsline {subsection}{\numberline {4.1.6}Funcionamiento}{34}{subsection.4.1.6}}
\newlabel{funcionamiento_kinect}{{4.1.6}{34}{Funcionamiento}{subsection.4.1.6}{}}
\@writefile{toc}{\contentsline {subsubsection}{\numberline {4.1.6.1}C\IeC {\'a}mara RGB}{34}{subsubsection.4.1.6.1}}
\newlabel{camara_rgb}{{4.1.6.1}{34}{Cámara RGB}{subsubsection.4.1.6.1}{}}
\@writefile{lof}{\contentsline {figure}{\numberline {4.24}{\ignorespaces Componentes de un p\IeC {\'\i }xel.}}{35}{figure.4.24}}
\newlabel{fig:componentes_pixel}{{4.24}{35}{Componentes de un píxel}{figure.4.24}{}}
\@writefile{lof}{\contentsline {figure}{\numberline {4.25}{\ignorespaces Estructura del vector de bytes de la imagen.}}{35}{figure.4.25}}
\newlabel{fig:estructura_vector_bytes}{{4.25}{35}{Estructura del vector de bytes de la imagen}{figure.4.25}{}}
\@writefile{toc}{\contentsline {subsubsection}{\numberline {4.1.6.2}C\IeC {\'a}mara profundidad}{35}{subsubsection.4.1.6.2}}
\newlabel{camara_profundidad}{{4.1.6.2}{35}{Cámara profundidad}{subsubsection.4.1.6.2}{}}
\citation{borenstein2012making}
\@writefile{lof}{\contentsline {figure}{\numberline {4.26}{\ignorespaces Fase de calibraci\IeC {\'o}n del sistema de mapas de profundidad de la Kinect.}}{36}{figure.4.26}}
\newlabel{fig:fase_calibracion}{{4.26}{36}{Fase de calibración del sistema de mapas de profundidad de la Kinect}{figure.4.26}{}}
\citation{webDocumentacionKinect}
\@writefile{lof}{\contentsline {figure}{\numberline {4.27}{\ignorespaces Imagen de los puntos infrarrojos proyectados en una pared ~\cite  {borenstein2012making}.}}{37}{figure.4.27}}
\newlabel{fig:puntos_infrarrojos_en_pared}{{4.27}{37}{Imagen de los puntos infrarrojos proyectados en una pared ~\cite {borenstein2012making}}{figure.4.27}{}}
\newlabel{eq:triangulacion_activa}{{4.1}{37}{Cámara profundidad}{equation.4.1.1}{}}
\@writefile{toc}{\contentsline {subsubsection}{\numberline {4.1.6.3}Sistema de micr\IeC {\'o}fonos}{37}{subsubsection.4.1.6.3}}
\@writefile{toc}{\contentsline {subsubsection}{\numberline {4.1.6.4}Motor de inclinaci\IeC {\'o}n}{37}{subsubsection.4.1.6.4}}
\@writefile{lof}{\contentsline {figure}{\numberline {4.28}{\ignorespaces Fase de funcionamiento del sistema de mapas de profundidad de la Kinect.}}{38}{figure.4.28}}
\newlabel{fig:fase_funcionamiento}{{4.28}{38}{Fase de funcionamiento del sistema de mapas de profundidad de la Kinect}{figure.4.28}{}}
\@writefile{lof}{\contentsline {figure}{\numberline {4.29}{\ignorespaces Disposici\IeC {\'o}n de los micr\IeC {\'o}fonos en Kinect ~\cite  {webDocumentacionKinect}.}}{38}{figure.4.29}}
\newlabel{fig:kinect-microfonos}{{4.29}{38}{Disposición de los micrófonos en Kinect ~\cite {webDocumentacionKinect}}{figure.4.29}{}}
\citation{Kramer:2012:HK:2207813}
\citation{catuhe2012programming}
\citation{kean2011meet}
\citation{webb2012beginning}
\citation{miles2012learn}
\citation{davison2012kinect}
\citation{jana2012kinect}
\citation{falahati2013openni}
\@writefile{toc}{\contentsline {subsection}{\numberline {4.1.7}\IeC {\textquestiondown }Por qu\IeC {\'e} Kinect?}{39}{subsection.4.1.7}}
\newlabel{por_que_kinect}{{4.1.7}{39}{¿Por qué Kinect?}{subsection.4.1.7}{}}
\@writefile{toc}{\contentsline {subsection}{\numberline {4.1.8}Librer\IeC {\'\i }as Kinect}{39}{subsection.4.1.8}}
\newlabel{librerias_kinect}{{4.1.8}{39}{Librerías Kinect}{subsection.4.1.8}{}}
\acronymused{SDK}
\acronymused{OpenNI}
\@writefile{toc}{\contentsline {subsubsection}{\numberline {4.1.8.1}SDK Windows}{40}{subsubsection.4.1.8.1}}
\newlabel{sdk_windows}{{4.1.8.1}{40}{SDK Windows}{subsubsection.4.1.8.1}{}}
\acronymused{SDK}
\acronymused{SDK}
\acronymused{SDK}
\acronymused{API}
\@writefile{toc}{\contentsline {paragraph}{\numberline {4.1.8.1.1}Descripci\IeC {\'o}n del \acs {SDK}\newline  }{40}{paragraph.4.1.8.1.1}}
\acronymused{SDK}
\acronymused{SDK}
\acronymused{API}
\acronymused{SDK}
\acronymused{SDK}
\acronymused{SDK}
\acronymused{SDK}
\citation{webDocumentacionSDK}
\acronymused{API}
\acronymused{API}
\acronymused{API}
\acronymused{SDK}
\@writefile{lof}{\contentsline {figure}{\numberline {4.30}{\ignorespaces Arquitectura del \acs {SDK} ~\cite  {webDocumentacionSDK}.}}{41}{figure.4.30}}
\acronymused{SDK}
\newlabel{fig:sdk_arquitectura}{{4.30}{41}{Arquitectura del \acs {SDK} ~\cite {webDocumentacionSDK}}{figure.4.30}{}}
\acronymused{USB}
\acronymused{SDK}
\acronymused{API}
\citation{webDocumentacionSDK}
\citation{webDocumentacionSDK}
\undonewlabel{acro:NUI}
\newlabel{acro:NUI}{{4.1.8.1.1}{42}{Descripción del \acs {SDK}\newline }{section*.15}{}}
\acronymused{NUI}
\undonewlabel{acro:DMO}
\newlabel{acro:DMO}{{4.1.8.1.1}{42}{Descripción del \acs {SDK}\newline }{section*.16}{}}
\acronymused{DMO}
\acronymused{API}
\acronymused{API}
\acronymused{SDK}
\acronymused{SDK}
\acronymused{SDK}
\acronymused{NUI}
\acronymused{API}
\acronymused{SDK}
\acronymused{NUI}
\@writefile{lof}{\contentsline {figure}{\numberline {4.31}{\ignorespaces Interacci\IeC {\'o}n del hardware y software con una aplicaci\IeC {\'o}n ~\cite  {webDocumentacionSDK}.}}{42}{figure.4.31}}
\newlabel{fig:libreria_NUI}{{4.31}{42}{Interacción del hardware y software con una aplicación ~\cite {webDocumentacionSDK}}{figure.4.31}{}}
\acronymused{NUI}
\acronymused{API}
\acronymused{API}
\acronymused{SDK}
\citation{webDocumentacionSDK}
\citation{webDocumentacionSDK}
\@writefile{lof}{\contentsline {figure}{\numberline {4.32}{\ignorespaces Articulaciones reconocidas por el \acs {SDK} de Kinect ~\cite  {webDocumentacionSDK}.}}{43}{figure.4.32}}
\acronymused{SDK}
\newlabel{fig:tracking_sdk}{{4.32}{43}{Articulaciones reconocidas por el \acs {SDK} de Kinect ~\cite {webDocumentacionSDK}}{figure.4.32}{}}
\acronymused{SDK}
\@writefile{lof}{\contentsline {figure}{\numberline {4.33}{\ignorespaces Puntos del rostro humano reconocidos por el \acs {SDK} de Microsoft ~\cite  {webDocumentacionSDK}.}}{43}{figure.4.33}}
\acronymused{SDK}
\newlabel{fig:puntos_rostro}{{4.33}{43}{Puntos del rostro humano reconocidos por el \acs {SDK} de Microsoft ~\cite {webDocumentacionSDK}}{figure.4.33}{}}
\acronymused{SDK}
\acronymused{SDK}
\citation{webDocumentacionSDK}
\@writefile{lof}{\contentsline {figure}{\numberline {4.34}{\ignorespaces Arquitectura de \textit  {KinectInteraction} ~\cite  {webDocumentacionSDK}.}}{44}{figure.4.34}}
\newlabel{fig:arquitectura_kinectInteraction}{{4.34}{44}{Arquitectura de \textit {KinectInteraction} ~\cite {webDocumentacionSDK}}{figure.4.34}{}}
\acronymused{API}
\acronymused{SDK}
\@writefile{lof}{\contentsline {figure}{\numberline {4.35}{\ignorespaces Resultado obtenido a trav\IeC {\'e}s de \textit  {Kinect Fusion} ~\cite  {webDocumentacionSDK}.}}{44}{figure.4.35}}
\newlabel{fig:kinect_fusion}{{4.35}{44}{Resultado obtenido a través de \textit {Kinect Fusion} ~\cite {webDocumentacionSDK}}{figure.4.35}{}}
\citation{webb2012beginning}
\@writefile{toc}{\contentsline {subparagraph}{Plataformas soportadas\newline  }{45}{figure.4.35}}
\acronymused{USB}
\acronymused{RAM}
\@writefile{toc}{\contentsline {paragraph}{\numberline {4.1.8.1.2}Evoluci\IeC {\'o}n del framework\newline  }{45}{paragraph.4.1.8.1.2}}
\acronymused{SDK}
\acronymused{SDK}
\acronymused{SDK}
\acronymused{SDK}
\acronymused{SDK}
\acronymused{HTML}
\acronymused{HTML}
\@writefile{lof}{\contentsline {figure}{\numberline {4.36}{\ignorespaces Evoluci\IeC {\'o}n del \acs {SDK} de Kinect ~\cite  {webb2012beginning}.}}{46}{figure.4.36}}
\acronymused{SDK}
\newlabel{fig:evolucion_SDK}{{4.36}{46}{Evolución del \acs {SDK} de Kinect ~\cite {webb2012beginning}}{figure.4.36}{}}
\acronymused{API}
\@writefile{toc}{\contentsline {paragraph}{\numberline {4.1.8.1.3}Ventajas y desventajas\newline  }{46}{paragraph.4.1.8.1.3}}
\acronymused{SDK}
\@writefile{toc}{\contentsline {subparagraph}{Ventajas\newline  }{46}{paragraph.4.1.8.1.3}}
\acronymused{SDK}
\acronymused{SDK}
\acronymused{API}
\acronymused{API}
\acronymused{SDK}
\@writefile{toc}{\contentsline {subparagraph}{Desventajas\newline  }{47}{paragraph.4.1.8.1.3}}
\acronymused{SDK}
\acronymused{IDE}
\acronymused{SDK}
\acronymused{SDK}
\acronymused{SDK}
\acronymused{SDK}
\@writefile{toc}{\contentsline {subsubsection}{\numberline {4.1.8.2}OpenNI}{47}{subsubsection.4.1.8.2}}
\newlabel{OpenNI}{{4.1.8.2}{47}{OpenNI}{subsubsection.4.1.8.2}{}}
\undonewlabel{acro:OpenNI}
\newlabel{acro:OpenNI}{{4.1.8.2}{47}{OpenNI}{section*.17}{}}
\acronymused{OpenNI}
\undonewlabel{acro:IN}
\newlabel{acro:IN}{{4.1.8.2}{47}{OpenNI}{section*.18}{}}
\acronymused{IN}
\acronymused{OpenNI}
\acronymused{SDK}
\acronymused{OpenNI}
\citation{webAxusXtion}
\acronymused{OpenNI}
\acronymused{IN}
\acronymused{OpenNI}
\@writefile{toc}{\contentsline {paragraph}{\numberline {4.1.8.2.1}Descripci\IeC {\'o}n del framework\newline  }{48}{paragraph.4.1.8.2.1}}
\acronymused{OpenNI}
\acronymused{GNU}
\undonewlabel{acro:LGPL}
\newlabel{acro:LGPL}{{4.1.8.2.1}{48}{Descripción del framework\newline }{section*.19}{}}
\acronymused{LGPL}
\acronymused{API}
\@writefile{lof}{\contentsline {figure}{\numberline {4.37}{\ignorespaces AXUS Xtion ~\cite  {webAxusXtion}.}}{48}{figure.4.37}}
\newlabel{fig:AXUS_Xtion}{{4.37}{48}{AXUS Xtion ~\cite {webAxusXtion}}{figure.4.37}{}}
\citation{webDocumentacionOpenNI}
\acronymused{API}
\@writefile{lof}{\contentsline {figure}{\numberline {4.38}{\ignorespaces Arquitectura del framework \acs {OpenNI} 2 ~\cite  {webDocumentacionOpenNI}.}}{49}{figure.4.38}}
\acronymused{OpenNI}
\newlabel{fig:OpenNI2_Architecture}{{4.38}{49}{Arquitectura del framework \acs {OpenNI} 2 ~\cite {webDocumentacionOpenNI}}{figure.4.38}{}}
\acronymused{OpenNI}
\acronymused{OpenNI}
\acronymused{API}
\acronymused{OpenNI}
\acronymused{API}
\citation{webTomoto}
\acronymused{OpenNI}
\acronymused{API}
\acronymused{OpenNI}
\acronymused{SDK}
\acronymused{OpenNI}
\acronymused{SDK}
\acronymused{SDK}
\acronymused{OpenNI}
\acronymused{OpenNI}
\@writefile{toc}{\contentsline {subparagraph}{Plataformas soportadas\newline  }{50}{figure.4.39}}
\@writefile{lof}{\contentsline {figure}{\numberline {4.39}{\ignorespaces Soluci\IeC {\'o}n propuesta por Tomoto S. Washio ~\cite  {webTomoto}.}}{51}{figure.4.39}}
\newlabel{fig:bridge_sdk}{{4.39}{51}{Solución propuesta por Tomoto S. Washio ~\cite {webTomoto}}{figure.4.39}{}}
\@writefile{toc}{\contentsline {subparagraph}{NiTE y otros middlewares de inter\IeC {\'e}s\newline  }{51}{figure.4.39}}
\acronymused{OpenNI}
\acronymused{OpenNI}
\acronymused{CPU}
\citation{web3DHand}
\citation{web3DHand}
\acronymused{OpenNI}
\acronymused{API}
\acronymused{OpenNI}
\undonewlabel{acro:FORTH}
\newlabel{acro:FORTH}{{4.1.8.2.1}{52}{NiTE y otros middlewares de interés\newline }{section*.20}{}}
\acronymused{FORTH}
\@writefile{lof}{\contentsline {figure}{\numberline {4.40}{\ignorespaces 3D Hand ~\cite  {web3DHand}.}}{52}{figure.4.40}}
\newlabel{fig:3d_hand}{{4.40}{52}{3D Hand ~\cite {web3DHand}}{figure.4.40}{}}
\acronymused{3D}
\citation{webkscan3d}
\citation{webSigmanil}
\@writefile{lof}{\contentsline {figure}{\numberline {4.41}{\ignorespaces Resultado obtenido con KScan3D ~\cite  {webkscan3d}.}}{53}{figure.4.41}}
\newlabel{fig:KScan3D}{{4.41}{53}{Resultado obtenido con KScan3D ~\cite {webkscan3d}}{figure.4.41}{}}
\@writefile{toc}{\contentsline {paragraph}{\numberline {4.1.8.2.2}Evoluci\IeC {\'o}n del framework\newline  }{53}{paragraph.4.1.8.2.2}}
\acronymused{API}
\acronymused{OpenNI}
\citation{webDocumentacionOpenNI}
\@writefile{lof}{\contentsline {figure}{\numberline {4.42}{\ignorespaces Ejemplo de gesto reconocido con SigmaNIL ~\cite  {webSigmanil}.}}{54}{figure.4.42}}
\newlabel{fig:sigmaNIL}{{4.42}{54}{Ejemplo de gesto reconocido con SigmaNIL ~\cite {webSigmanil}}{figure.4.42}{}}
\acronymused{SDK}
\acronymused{API}
\acronymused{OpenNI}
\acronymused{API}
\acronymused{OpenNI}
\acronymused{OpenNI}
\acronymused{API}
\@writefile{lof}{\contentsline {figure}{\numberline {4.43}{\ignorespaces Evoluci\IeC {\'o}n de la arquitectura \acs {OpenNI} ~\cite  {webDocumentacionOpenNI}.}}{54}{figure.4.43}}
\acronymused{OpenNI}
\newlabel{fig:evolucion_openni}{{4.43}{54}{Evolución de la arquitectura \acs {OpenNI} ~\cite {webDocumentacionOpenNI}}{figure.4.43}{}}
\acronymused{OpenNI}
\@writefile{toc}{\contentsline {paragraph}{\numberline {4.1.8.2.3}Ventajas y desventajas\newline  }{55}{paragraph.4.1.8.2.3}}
\acronymused{SDK}
\acronymused{OpenNI}
\@writefile{toc}{\contentsline {subparagraph}{Ventajas\newline  }{55}{paragraph.4.1.8.2.3}}
\acronymused{3D}
\acronymused{API}
\acronymused{GNU}
\acronymused{LGPL}
\acronymused{SDK}
\acronymused{SDK}
\@writefile{toc}{\contentsline {subparagraph}{Desventajas\newline  }{56}{paragraph.4.1.8.2.3}}
\acronymused{SDK}
\acronymused{OpenNI}
\acronymused{SDK}
\acronymused{SDK}
\acronymused{OpenNI}
\acronymused{OpenNI}
\acronymused{SDK}
\acronymused{SDK}
\@writefile{toc}{\contentsline {subsubsection}{\numberline {4.1.8.3}OpenKinect}{56}{subsubsection.4.1.8.3}}
\newlabel{OpenKinect}{{4.1.8.3}{56}{OpenKinect}{subsubsection.4.1.8.3}{}}
\acronymused{GPL}
\acronymused{SDK}
\acronymused{OpenNI}
\@writefile{toc}{\contentsline {paragraph}{\numberline {4.1.8.3.1}Descripci\IeC {\'o}n del framework\newline  }{56}{paragraph.4.1.8.3.1}}
\acronymused{API}
\undonewlabel{acro:JNA}
\newlabel{acro:JNA}{{4.1.8.3.1}{56}{Descripción del framework\newline }{section*.21}{}}
\acronymused{JNA}
\undonewlabel{acro:JNI}
\newlabel{acro:JNI}{{4.1.8.3.1}{56}{Descripción del framework\newline }{section*.22}{}}
\acronymused{JNI}
\acronymused{API}
\acronymused{JNI}
\acronymused{JNA}
\acronymused{PPM}
\acronymused{PGM}
\@writefile{toc}{\contentsline {paragraph}{\numberline {4.1.8.3.2}Ventajas y desventajas\newline  }{57}{paragraph.4.1.8.3.2}}
\@writefile{toc}{\contentsline {subparagraph}{Ventajas\newline  }{57}{paragraph.4.1.8.3.2}}
\acronymused{GPL}
\@writefile{toc}{\contentsline {subparagraph}{Desventajas\newline  }{57}{paragraph.4.1.8.3.2}}
\citation{Trucco:1998:ITC:551277}
\acronymused{SDK}
\acronymused{OpenNI}
\@writefile{toc}{\contentsline {section}{\numberline {4.2}Visi\IeC {\'o}n por computador}{58}{section.4.2}}
\newlabel{vision_por_computador}{{4.2}{58}{Visión por computador}{section.4.2}{}}
\citation{vezzani2010_281}
\citation{10.1109/AVSS.2009.46}
\@writefile{toc}{\contentsline {subsection}{\numberline {4.2.1}Perspectiva de visi\IeC {\'o}n por computador}{59}{subsection.4.2.1}}
\newlabel{perspectiva_de_visi\IeC {\'o}n_por_computador}{{4.2.1}{59}{Perspectiva de visión por computador}{subsection.4.2.1}{}}
\undonewlabel{acro:HMM}
\newlabel{acro:HMM}{{4.2.1}{59}{Perspectiva de visión por computador}{section*.23}{}}
\acronymused{HMM}
\undonewlabel{acro:GMM}
\newlabel{acro:GMM}{{4.2.1}{59}{Perspectiva de visión por computador}{section*.24}{}}
\acronymused{GMM}
\acronymused{HMM}
\undonewlabel{acro:IEEE}
\newlabel{acro:IEEE}{{4.2.1}{59}{Perspectiva de visión por computador}{section*.25}{}}
\acronymused{IEEE}
\undonewlabel{acro:AVSS}
\newlabel{acro:AVSS}{{4.2.1}{59}{Perspectiva de visión por computador}{section*.26}{}}
\acronymused{AVSS}
\citation{10.1109/CVPR.2008.4587756}
\citation{Ahmad:2008:HAR:1361741.1361851}
\undonewlabel{acro:MHI}
\newlabel{acro:MHI}{{4.2.1}{60}{Perspectiva de visión por computador}{section*.27}{}}
\acronymused{MHI}
\undonewlabel{acro:SOM}
\newlabel{acro:SOM}{{4.2.1}{60}{Perspectiva de visión por computador}{section*.28}{}}
\acronymused{SOM}
\acronymused{HMM}
\acronymused{MHI}
\acronymused{MHI}
\undonewlabel{acro:SIR}
\newlabel{acro:SIR}{{4.2.1}{60}{Perspectiva de visión por computador}{section*.29}{}}
\acronymused{SIR}
\acronymused{HMM}
\undonewlabel{acro:ML}
\newlabel{acro:ML}{{4.2.1}{60}{Perspectiva de visión por computador}{section*.30}{}}
\acronymused{ML}
\acronymused{SVM}
\@writefile{toc}{\contentsline {subsection}{\numberline {4.2.2}Algoritmos de reconocimiento de acciones basados en v\IeC {\'\i }deo}{60}{subsection.4.2.2}}
\newlabel{algoritmos_de_reconocimiento_de_acciones_basados_en_v\IeC {\'\i }deo}{{4.2.2}{60}{Algoritmos de reconocimiento de acciones basados en vídeo}{subsection.4.2.2}{}}
\acronymused{HMM}
\acronymused{BoW}
\undonewlabel{acro:CLG}
\newlabel{acro:CLG}{{4.2.2}{60}{Algoritmos de reconocimiento de acciones basados en vídeo}{section*.31}{}}
\acronymused{CLG}
\acronymused{HMM}
\citation{Wang:2008:VLR:1363359.1363378}
\citation{HARUStC:2009}
\citation{Lewandowski:2010:VSA:1888212.1888254}
\undonewlabel{acro:LPP}
\newlabel{acro:LPP}{{4.2.2}{61}{Algoritmos de reconocimiento de acciones basados en vídeo}{section*.32}{}}
\acronymused{LPP}
\acronymused{GMM}
\acronymused{HMM}
\undonewlabel{acro:TVTL}
\newlabel{acro:TVTL}{{4.2.2}{61}{Algoritmos de reconocimiento de acciones basados en vídeo}{section*.33}{}}
\acronymused{TVTL}
\undonewlabel{acro:LTM}
\newlabel{acro:LTM}{{4.2.2}{61}{Algoritmos de reconocimiento de acciones basados en vídeo}{section*.34}{}}
\acronymused{LTM}
\undonewlabel{acro:DTM}
\newlabel{acro:DTM}{{4.2.2}{61}{Algoritmos de reconocimiento de acciones basados en vídeo}{section*.35}{}}
\acronymused{DTM}
\undonewlabel{acro:TTM}
\newlabel{acro:TTM}{{4.2.2}{61}{Algoritmos de reconocimiento de acciones basados en vídeo}{section*.36}{}}
\acronymused{TTM}
\acronymused{TTM}
\acronymused{DTM}
\citation{10.1109/CVPR.2008.4587756}
\citation{Kuehne11}
\citation{Nebel:2011:CMC:2045195.2045230}
\@writefile{lot}{\contentsline {table}{\numberline {4.2}{\ignorespaces Conjuntos de datos existentes, el n\IeC {\'u}mero de categor\IeC {\'\i }as y el n\IeC {\'u}mero de clips por categor\IeC {\'\i }a ordenados por a\IeC {\~n}o}}{62}{table.4.2}}
\newlabel{table:tabla_comparativa_datasets}{{4.2}{62}{Conjuntos de datos existentes, el número de categorías y el número de clips por categoría ordenados por año}{table.4.2}{}}
\acronymused{BoW}
\citation{Mart02}
\@writefile{toc}{\contentsline {chapter}{\numberline {5}M\IeC {\'e}todo de trabajo}{65}{chapter.5}}
\@writefile{lof}{\addvspace {10\p@ }}
\@writefile{lot}{\addvspace {10\p@ }}
\newlabel{chap:metodo}{{5}{65}{Método de trabajo}{chapter.5}{}}
\@writefile{toc}{\contentsline {section}{\numberline {5.1}Metodolog\IeC {\'\i }a de trabajo}{65}{section.5.1}}
\citation{Schwaber:2001:ASD:559553}
\citation{scrum1}
\citation{scrum2}
\@writefile{toc}{\contentsline {subsection}{\numberline {5.1.1}Acerca de Scrum}{66}{subsection.5.1.1}}
\newlabel{acerca_de_scrum}{{5.1.1}{66}{Acerca de Scrum}{subsection.5.1.1}{}}
\citation{webfaseScrum}
\@writefile{toc}{\contentsline {subsubsection}{\numberline {5.1.1.1}Fases de Scrum}{67}{subsubsection.5.1.1.1}}
\@writefile{lof}{\contentsline {figure}{\numberline {5.1}{\ignorespaces Fases de Scrum ~\cite  {webfaseScrum}.}}{68}{figure.5.1}}
\newlabel{fig:fases_scrum}{{5.1}{68}{Fases de Scrum ~\cite {webfaseScrum}}{figure.5.1}{}}
\@writefile{toc}{\contentsline {subsubsection}{\numberline {5.1.1.2}Roles y responsabilidades}{68}{subsubsection.5.1.1.2}}
\citation{webfaseScrum}
\@writefile{toc}{\contentsline {subsubsection}{\numberline {5.1.1.3}Pr\IeC {\'a}cticas y conceptos relevantes}{69}{subsubsection.5.1.1.3}}
\@writefile{lof}{\contentsline {figure}{\numberline {5.2}{\ignorespaces Iteraci\IeC {\'o}n de la metodolog\IeC {\'\i }a Scrum ~\cite  {webfaseScrum}.}}{70}{figure.5.2}}
\newlabel{fig:sprint_scrum}{{5.2}{70}{Iteración de la metodología Scrum ~\cite {webfaseScrum}}{figure.5.2}{}}
\@writefile{toc}{\contentsline {subsection}{\numberline {5.1.2}Descripci\IeC {\'o}n de la planificaci\IeC {\'o}n}{71}{subsection.5.1.2}}
\newlabel{descripcion_de_la_planificacion}{{5.1.2}{71}{Descripción de la planificación}{subsection.5.1.2}{}}
\@writefile{toc}{\contentsline {subsubsection}{\numberline {5.1.2.1}Fase 1: Pre-game}{72}{subsubsection.5.1.2.1}}
\acronymused{SVM}
\@writefile{toc}{\contentsline {subsubsection}{\numberline {5.1.2.2}Fase 2: Development}{73}{subsubsection.5.1.2.2}}
\@writefile{toc}{\contentsline {paragraph}{\numberline {5.1.2.2.1}Iteraci\IeC {\'o}n 0 \newline  }{73}{paragraph.5.1.2.2.1}}
\@writefile{toc}{\contentsline {paragraph}{\numberline {5.1.2.2.2}Iteraci\IeC {\'o}n 1 \newline  }{74}{paragraph.5.1.2.2.2}}
\acronymused{OpenNI}
\@writefile{toc}{\contentsline {paragraph}{\numberline {5.1.2.2.3}Iteraci\IeC {\'o}n 2 \newline  }{75}{paragraph.5.1.2.2.3}}
\acronymused{OpenNI}
\acronymused{OpenNI}
\acronymused{GLUT}
\@writefile{toc}{\contentsline {paragraph}{\numberline {5.1.2.2.4}Iteraci\IeC {\'o}n 3 \newline  }{75}{paragraph.5.1.2.2.4}}
\acronymused{PPM}
\acronymused{POSIX}
\acronymused{JPEG}
\acronymused{JPEG}
\acronymused{XML}
\acronymused{XML}
\@writefile{toc}{\contentsline {paragraph}{\numberline {5.1.2.2.5}Iteraci\IeC {\'o}n 4 \newline  }{76}{paragraph.5.1.2.2.5}}
\acronymused{SVM}
\acronymused{BoW}
\acronymused{PERL}
\acronymused{IXMAS}
\acronymused{SVM}
\acronymused{SVM}
\@writefile{toc}{\contentsline {paragraph}{\numberline {5.1.2.2.6}Iteraci\IeC {\'o}n 5 \newline  }{77}{paragraph.5.1.2.2.6}}
\citation{processing}
\@writefile{toc}{\contentsline {subsubsection}{\numberline {5.1.2.3}Fase 3: Post-game}{78}{subsubsection.5.1.2.3}}
\@writefile{toc}{\contentsline {section}{\numberline {5.2}Herramientas}{78}{section.5.2}}
\newlabel{herramientas}{{5.2}{78}{Herramientas}{section.5.2}{}}
\acronymused{KinBehR}
\@writefile{toc}{\contentsline {subsection}{\numberline {5.2.1}Aplicaciones de desarrollo}{78}{subsection.5.2.1}}
\acronymused{GNU}
\acronymused{GPL}
\newlabel{processing}{{5.2.1}{78}{Aplicaciones de desarrollo}{subsection.5.2.1}{}}
\acronymused{OpenNI}
\acronymused{GNU}
\acronymused{LGPL}
\acronymused{API}
\citation{simpleopenni}
\citation{opencv}
\citation{glut}
\citation{gcc}
\citation{Stallman:2004:GMP:1205748}
\citation{mercurial}
\citation{stipdept}
\citation{ann}
\citation{bsvm}
\citation{ffmpeg}
\citation{qt}
\acronymused{OpenNI}
\acronymused{BSD}
\newlabel{opencv}{{5.2.1}{79}{Aplicaciones de desarrollo}{subsection.5.2.1}{}}
\undonewlabel{acro:GLUT}
\newlabel{acro:GLUT}{{5.2.1}{79}{\enit@align {\enit@format {\acf {GLUT}:}}}{section*.37}{}}
\acronymused{GLUT}
\acronymused{GLUT}
\undonewlabel{acro:GCC}
\newlabel{acro:GCC}{{5.2.1}{79}{\enit@align {\enit@format {\acf {GCC}:}}}{section*.38}{}}
\acronymused{GCC}
\acronymused{GNU}
\citation{emacs}
\citation{Stroustrup:2000:CPL:518791}
\citation{Talbot:2013:ULW:2523292}
\citation{dia}
\citation{gimp}
\acronymused{GNU}
\acronymused{GNU}
\@writefile{toc}{\contentsline {subsection}{\numberline {5.2.2}Lenguajes de programaci\IeC {\'o}n}{80}{subsection.5.2.2}}
\acronymused{GNU}
\@writefile{toc}{\contentsline {subsection}{\numberline {5.2.3}Documentaci\IeC {\'o}n y gr\IeC {\'a}ficos}{80}{subsection.5.2.3}}
\@writefile{toc}{\contentsline {subsection}{\numberline {5.2.4}Hardware}{80}{subsection.5.2.4}}
\newlabel{metodo_hardware}{{5.2.4}{80}{Hardware}{subsection.5.2.4}{}}
\acronymused{KinBehR}
\acronymused{RAM}
\@writefile{toc}{\contentsline {subsection}{\numberline {5.2.5}Sistemas operativos}{81}{subsection.5.2.5}}
\@writefile{toc}{\contentsline {chapter}{\numberline {6}Desarrollo del proyecto}{83}{chapter.6}}
\@writefile{lof}{\addvspace {10\p@ }}
\@writefile{lot}{\addvspace {10\p@ }}
\newlabel{chap:desarrollo_del_proyecto}{{6}{83}{Desarrollo del proyecto}{chapter.6}{}}
\acronymused{OpenNI}
\acronymused{OpenNI}
\acronymused{GLUT}
\citation{borenstein2012making}
\citation{wbTeoPark}
\acronymused{BoW}
\@writefile{toc}{\contentsline {section}{\numberline {6.1}Iteraci\IeC {\'o}n 1: Primeros pasos con Kinect}{84}{section.6.1}}
\newlabel{primeros_pasos_con_kinect}{{6.1}{84}{Iteración 1: Primeros pasos con Kinect}{section.6.1}{}}
\acronymused{OpenNI}
\acronymused{OpenNI}
\acronymused{OpenNI}
\@writefile{lof}{\contentsline {figure}{\numberline {6.1}{\ignorespaces Proyecto \textit  {``MAY THE FORCE BE WITH YOU''} de TeoPatk ~\cite  {wbTeoPark}.}}{85}{figure.6.1}}
\newlabel{fig:fuerza}{{6.1}{85}{Proyecto \textit {``MAY THE FORCE BE WITH YOU''} de TeoPatk ~\cite {wbTeoPark}}{figure.6.1}{}}
\@writefile{toc}{\contentsline {subsection}{\numberline {6.1.1}Primer programa con Kinect}{85}{subsection.6.1.1}}
\newlabel{code:processing_ejem0}{{6.1}{86}{«Ejemplo 1» versión 1}{lstlisting.6.1}{}}
\@writefile{lol}{\contentsline {lstlisting}{\numberline {6.1}\IeC {\guillemotleft }Ejemplo 1\IeC {\guillemotright } versi\IeC {\'o}n 1}{86}{lstlisting.6.1}}
\@writefile{toc}{\contentsline {subsubsection}{\numberline {6.1.1.1}La reflexi\IeC {\'o}n}{86}{subsubsection.6.1.1.1}}
\citation{borenstein2012making}
\@writefile{lof}{\contentsline {figure}{\numberline {6.2}{\ignorespaces Captura del primer ejemplo con Processing.}}{87}{figure.6.2}}
\newlabel{fig:processing_1}{{6.2}{87}{Captura del primer ejemplo con Processing}{figure.6.2}{}}
\@writefile{lof}{\contentsline {figure}{\numberline {6.3}{\ignorespaces Scanner \acs {3D} con Kinect por Kyle McDonald ~\cite  {borenstein2012making}.}}{87}{figure.6.3}}
\acronymused{3D}
\newlabel{fig:processing_2}{{6.3}{87}{Scanner \acs {3D} con Kinect por Kyle McDonald ~\cite {borenstein2012making}}{figure.6.3}{}}
\@writefile{toc}{\contentsline {subsubsection}{\numberline {6.1.1.2}La oclusi\IeC {\'o}n}{87}{subsubsection.6.1.1.2}}
\@writefile{toc}{\contentsline {subsubsection}{\numberline {6.1.1.3}Desalineamiento entre c\IeC {\'a}maras}{88}{subsubsection.6.1.1.3}}
\newlabel{desalineamiento_entre_camaras}{{6.1.1.3}{88}{Desalineamiento entre cámaras}{subsubsection.6.1.1.3}{}}
\@writefile{toc}{\contentsline {subsection}{\numberline {6.1.2}Apreciaciones a nivel de p\IeC {\'\i }xel}{88}{subsection.6.1.2}}
\newlabel{apreciaciones_a_nivel_de_pixel}{{6.1.2}{88}{Apreciaciones a nivel de píxel}{subsection.6.1.2}{}}
\@writefile{lof}{\contentsline {figure}{\numberline {6.4}{\ignorespaces Captura del segundo ejemplo con Processing.}}{88}{figure.6.4}}
\newlabel{fig:processing_3}{{6.4}{88}{Captura del segundo ejemplo con Processing}{figure.6.4}{}}
\@writefile{toc}{\contentsline {subsubsection}{\numberline {6.1.2.1}P\IeC {\'\i }xeles RGB}{89}{subsubsection.6.1.2.1}}
\newlabel{pixeles_rgb}{{6.1.2.1}{89}{Píxeles RGB}{subsubsection.6.1.2.1}{}}
\@writefile{toc}{\contentsline {subsubsection}{\numberline {6.1.2.2}P\IeC {\'\i }xeles de profundidad}{90}{subsubsection.6.1.2.2}}
\@writefile{toc}{\contentsline {subsection}{\numberline {6.1.3}Conversi\IeC {\'o}n a distancias reales}{92}{subsection.6.1.3}}
\newlabel{eq:valor_relativo_de_x}{{6.1}{92}{Conversión a distancias reales}{equation.6.1.1}{}}
\citation{borenstein2012making}
\citation{borenstein2012making}
\acronymused{OpenNI}
\@writefile{lof}{\contentsline {figure}{\numberline {6.5}{\ignorespaces Comparaci\IeC {\'o}n entre los p\IeC {\'\i }xeles en una matriz bidimensional y una unidimensional ~\cite  {borenstein2012making}.}}{94}{figure.6.5}}
\newlabel{fig:matriz_2D_1D}{{6.5}{94}{Comparación entre los píxeles en una matriz bidimensional y una unidimensional ~\cite {borenstein2012making}}{figure.6.5}{}}
\newlabel{eq:2d_to_1d}{{6.2}{94}{Conversión a distancias reales}{equation.6.1.2}{}}
\@writefile{toc}{\contentsline {subsection}{\numberline {6.1.4}Trabajando en tres dimensiones}{94}{subsection.6.1.4}}
\@writefile{lot}{\contentsline {table}{\numberline {6.1}{\ignorespaces Resultados del tercer ejemplo con Processing.}}{95}{table.6.1}}
\newlabel{table:resultados_ejem3_processing}{{6.1}{95}{Resultados del tercer ejemplo con Processing}{table.6.1}{}}
\@writefile{lof}{\contentsline {figure}{\numberline {6.6}{\ignorespaces Captura del tercer ejemplo con Processing.}}{95}{figure.6.6}}
\newlabel{fig:processing_4}{{6.6}{95}{Captura del tercer ejemplo con Processing}{figure.6.6}{}}
\citation{webProcessing}
\citation{webProcessing}
\@writefile{toc}{\contentsline {subsubsection}{\numberline {6.1.4.1}Nube de puntos}{96}{subsubsection.6.1.4.1}}
\newlabel{nube_de_puntos}{{6.1.4.1}{96}{Nube de puntos}{subsubsection.6.1.4.1}{}}
\@writefile{lof}{\contentsline {figure}{\numberline {6.7}{\ignorespaces Origen de coordenadas bidimensional en Processing ~\cite  {webProcessing}.}}{96}{figure.6.7}}
\newlabel{fig:origen_coordenadas_processing}{{6.7}{96}{Origen de coordenadas bidimensional en Processing ~\cite {webProcessing}}{figure.6.7}{}}
\@writefile{lof}{\contentsline {figure}{\numberline {6.8}{\ignorespaces Origen de coordenadas tridimensional en Processing ~\cite  {webProcessing}.}}{97}{figure.6.8}}
\newlabel{fig:origen_coordenadas_processing2}{{6.8}{97}{Origen de coordenadas tridimensional en Processing ~\cite {webProcessing}}{figure.6.8}{}}
\acronymused{OpenNI}
\acronymused{OpenNI}
\@writefile{lof}{\contentsline {figure}{\numberline {6.9}{\ignorespaces Captura del primer ejemplo de ``Nube de puntos''.}}{98}{figure.6.9}}
\newlabel{fig:nube_de_puntos_1}{{6.9}{98}{Captura del primer ejemplo de ``Nube de puntos''}{figure.6.9}{}}
\@writefile{lof}{\contentsline {figure}{\numberline {6.10}{\ignorespaces Captura del primer ejemplo de ``Nube de puntos'' donde s\IeC {\'o}lo se representa uno de cada diez puntos capturados.}}{98}{figure.6.10}}
\newlabel{fig:nube_de_puntos_2}{{6.10}{98}{Captura del primer ejemplo de ``Nube de puntos'' donde sólo se representa uno de cada diez puntos capturados}{figure.6.10}{}}
\@writefile{lof}{\contentsline {figure}{\numberline {6.11}{\ignorespaces Captura del primer ejemplo de ``Nube de puntos'' desde otro punto de vista.}}{99}{figure.6.11}}
\newlabel{fig:nube_de_puntos_3}{{6.11}{99}{Captura del primer ejemplo de ``Nube de puntos'' desde otro punto de vista}{figure.6.11}{}}
\@writefile{lof}{\contentsline {figure}{\numberline {6.12}{\ignorespaces Captura del primer ejemplo de ``Nube de puntos'' a color.}}{100}{figure.6.12}}
\newlabel{fig:nube_de_puntos_4}{{6.12}{100}{Captura del primer ejemplo de ``Nube de puntos'' a color}{figure.6.12}{}}
\@writefile{toc}{\contentsline {subsection}{\numberline {6.1.5}Afianzando los conceptos adquiridos}{101}{subsection.6.1.5}}
\@writefile{toc}{\contentsline {subsubsection}{\numberline {6.1.5.1}Dibujando con Kinect}{101}{subsubsection.6.1.5.1}}
\newlabel{code:processing_dibujando_con_kinect_pseudo}{{6.2}{101}{«Dibujando con Kinect» }{lstlisting.6.2}{}}
\@writefile{lol}{\contentsline {lstlisting}{\numberline {6.2}\IeC {\guillemotleft }Dibujando con Kinect\IeC {\guillemotright } }{101}{lstlisting.6.2}}
\@writefile{lof}{\contentsline {figure}{\numberline {6.13}{\ignorespaces Captura de la aplicaci\IeC {\'o}n ``Dibujando con Kinect''.}}{102}{figure.6.13}}
\newlabel{fig:drawing_processing}{{6.13}{102}{Captura de la aplicación ``Dibujando con Kinect''}{figure.6.13}{}}
\@writefile{toc}{\contentsline {subsubsection}{\numberline {6.1.5.2}\IeC {\'A}lbum de fotos}{102}{subsubsection.6.1.5.2}}
\@writefile{lof}{\contentsline {figure}{\numberline {6.14}{\ignorespaces Captura de la aplicaci\IeC {\'o}n ``\IeC {\'A}lbum de fotos''.}}{103}{figure.6.14}}
\newlabel{fig:album_de_fotos}{{6.14}{103}{Captura de la aplicación ``Álbum de fotos''}{figure.6.14}{}}
\@writefile{toc}{\contentsline {subsubsection}{\numberline {6.1.5.3}Bater\IeC {\'\i }a virtual}{103}{subsubsection.6.1.5.3}}
\citation{borenstein2012making}
\@writefile{lof}{\contentsline {figure}{\numberline {6.15}{\ignorespaces Distribuci\IeC {\'o}n de un cubo en Processing ~\cite  {borenstein2012making}.}}{105}{figure.6.15}}
\newlabel{fig:cubo_processing}{{6.15}{105}{Distribución de un cubo en Processing ~\cite {borenstein2012making}}{figure.6.15}{}}
\acronymused{OpenNI}
\@writefile{toc}{\contentsline {section}{\numberline {6.2}Iteraci\IeC {\'o}n 2: Comprendiendo el funcionamiento de \acs {OpenNI}}{105}{section.6.2}}
\newlabel{comprendiendo_el_funcionamiendo_de_openni}{{6.2}{105}{Iteración 2: Comprendiendo el funcionamiento de \acs {OpenNI}}{section.6.2}{}}
\acronymused{OpenNI}
\acronymused{OpenNI}
\@writefile{lof}{\contentsline {figure}{\numberline {6.16}{\ignorespaces Captura de la aplicaci\IeC {\'o}n ``Bater\IeC {\'\i }a virtual''.}}{106}{figure.6.16}}
\newlabel{fig:bateria_musical_1}{{6.16}{106}{Captura de la aplicación ``Batería virtual''}{figure.6.16}{}}
\acronymused{OpenNI}
\acronymused{GLUT}
\acronymused{OpenNI}
\acronymused{GLUT}
\@writefile{toc}{\contentsline {subsection}{\numberline {6.2.1}Aspectos b\IeC {\'a}sicos sobre la librer\IeC {\'\i }a}{106}{subsection.6.2.1}}
\acronymused{OpenNI}
\acronymused{OpenNI}
\acronymused{OpenNI}
\acronymused{OpenNI}
\@writefile{toc}{\contentsline {subsubsection}{\numberline {6.2.1.1}openni::OpenNI}{107}{subsubsection.6.2.1.1}}
\acronymused{OpenNI}
\acronymused{API}
\@writefile{toc}{\contentsline {paragraph}{\numberline {6.2.1.1.1}Acceso al dispositivo \newline  }{107}{paragraph.6.2.1.1.1}}
\acronymused{API}
\acronymused{OpenNI}
\acronymused{API}
\acronymused{OpenNI}
\@writefile{toc}{\contentsline {paragraph}{\numberline {6.2.1.1.2}Acceso a los flujos de v\IeC {\'\i }deo \newline  }{108}{paragraph.6.2.1.1.2}}
\@writefile{toc}{\contentsline {paragraph}{\numberline {6.2.1.1.3}Acceso a los dispositivos a trav\IeC {\'e}s de eventos \newline  }{108}{paragraph.6.2.1.1.3}}
\acronymused{OpenNI}
\acronymused{OpenNI}
\acronymused{OpenNI}
\acronymused{OpenNI}
\@writefile{toc}{\contentsline {paragraph}{\numberline {6.2.1.1.4}Informaci\IeC {\'o}n de errores \newline  }{108}{paragraph.6.2.1.1.4}}
\@writefile{toc}{\contentsline {subsubsection}{\numberline {6.2.1.2}openni::Device}{109}{subsubsection.6.2.1.2}}
\newlabel{openni_device}{{6.2.1.2}{109}{openni::Device}{subsubsection.6.2.1.2}{}}
\acronymused{API}
\acronymused{OpenNI}
\acronymused{OpenNI}
\@writefile{toc}{\contentsline {subsubsection}{\numberline {6.2.1.3}openni::VideoStream}{110}{subsubsection.6.2.1.3}}
\@writefile{toc}{\contentsline {subsubsection}{\numberline {6.2.1.4}openni::VideoFrameRef}{110}{subsubsection.6.2.1.4}}
\@writefile{toc}{\contentsline {subsection}{\numberline {6.2.2}GLUT}{110}{subsection.6.2.2}}
\newlabel{glut}{{6.2.2}{110}{GLUT}{subsection.6.2.2}{}}
\acronymused{GLUT}
\acronymused{ANSI}
\acronymused{FORTRAN}
\citation{Kilgard:1996:OPX:232898}
\citation{Fernando:2003:CTD:862247}
\acronymused{GLUT}
\acronymused{API}
\acronymused{GLUT}
\acronymused{API}
\acronymused{GLUT}
\acronymused{API}
\acronymused{GLUT}
\acronymused{API}
\acronymused{GLUT}
\acronymused{GLUT}
\acronymused{GLUT}
\acronymused{GLUT}
\acronymused{GLUT}
\acronymused{GLUT}
\acronymused{GLUT}
\acronymused{GLUT}
\acronymused{API}
\acronymused{GLUT}
\acronymused{GLUT}
\acronymused{GLUT}
\acronymused{GLUT}
\acronymused{GLUT}
\@writefile{toc}{\contentsline {subsection}{\numberline {6.2.3}Primera versi\IeC {\'o}n del m\IeC {\'o}dulo de captura de im\IeC {\'a}genes}{113}{subsection.6.2.3}}
\newlabel{modulo_captura_imagenes_v1}{{6.2.3}{113}{Primera versión del módulo de captura de imágenes}{subsection.6.2.3}{}}
\@writefile{lof}{\contentsline {figure}{\numberline {6.17}{\ignorespaces Diagrama de clases del m\IeC {\'o}dulo de captura de im\IeC {\'a}genes (versi\IeC {\'o}n 1).}}{114}{figure.6.17}}
\newlabel{fig:DiagramaUML_v1}{{6.17}{114}{Diagrama de clases del módulo de captura de imágenes (versión 1)}{figure.6.17}{}}
\@writefile{toc}{\contentsline {section}{\numberline {6.3}Iteraci\IeC {\'o}n 3: Incorporaci\IeC {\'o}n de NiTE}{114}{section.6.3}}
\newlabel{incorporacion_de_nite}{{6.3}{114}{Iteración 3: Incorporación de NiTE}{section.6.3}{}}
\acronymused{OpenNI}
\acronymused{GLUT}
\@writefile{lof}{\contentsline {figure}{\numberline {6.18}{\ignorespaces M\IeC {\'o}dulo de captura de im\IeC {\'a}genes en modo RGB.}}{115}{figure.6.18}}
\newlabel{fig:modulo_captura_1}{{6.18}{115}{Módulo de captura de imágenes en modo RGB}{figure.6.18}{}}
\@writefile{lof}{\contentsline {figure}{\numberline {6.19}{\ignorespaces M\IeC {\'o}dulo de captura de im\IeC {\'a}genes en modo profundidad.}}{115}{figure.6.19}}
\newlabel{fig:modulo_captura_2}{{6.19}{115}{Módulo de captura de imágenes en modo profundidad}{figure.6.19}{}}
\@writefile{toc}{\contentsline {subsection}{\numberline {6.3.1}Toma de contacto con NiTE}{116}{subsection.6.3.1}}
\newlabel{toma_de_contacto_con_nite}{{6.3.1}{116}{Toma de contacto con NiTE}{subsection.6.3.1}{}}
\acronymused{OpenNI}
\acronymused{3D}
\acronymused{API}
\acronymused{API}
\@writefile{toc}{\contentsline {subsubsection}{\numberline {6.3.1.1}Seguimiento de manos y detecci\IeC {\'o}n de gestos}{116}{subsubsection.6.3.1.1}}
\acronymused{API}
\acronymused{API}
\acronymused{OpenNI}
\newlabel{code:nite_ejem1}{{6.3}{117}{Detección de poses con NiTE}{lstlisting.6.3}{}}
\@writefile{lol}{\contentsline {lstlisting}{\numberline {6.3}Detecci\IeC {\'o}n de poses con NiTE}{117}{lstlisting.6.3}}
\acronymused{API}
\citation{webDocumentacionOpenNI}
\@writefile{toc}{\contentsline {subsubsection}{\numberline {6.3.1.2}Seguimiento del cuerpo}{118}{subsubsection.6.3.1.2}}
\@writefile{toc}{\contentsline {paragraph}{\numberline {6.3.1.2.1}Funcionamiento \newline  }{118}{paragraph.6.3.1.2.1}}
\acronymused{API}
\@writefile{toc}{\contentsline {paragraph}{\numberline {6.3.1.2.2}An\IeC {\'a}lisis e interpretaci\IeC {\'o}n de la informaci\IeC {\'o}n proporcionada \newline  }{118}{paragraph.6.3.1.2.2}}
\newlabel{analisis_e_interpretaci\IeC {\'o}n_de_la_informacion_proporcionada}{{6.3.1.2.2}{118}{Análisis e interpretación de la información proporcionada \newline }{paragraph.6.3.1.2.2}{}}
\@writefile{lof}{\contentsline {figure}{\numberline {6.20}{\ignorespaces Funcionamiento del seguimiento de usuarios con NiTE ~\cite  {webDocumentacionOpenNI}.}}{119}{figure.6.20}}
\newlabel{fig:nite_skeleton_fincionamiento}{{6.20}{119}{Funcionamiento del seguimiento de usuarios con NiTE ~\cite {webDocumentacionOpenNI}}{figure.6.20}{}}
\@writefile{lof}{\contentsline {figure}{\numberline {6.21}{\ignorespaces Sistema de coordenadas de NiTE.}}{119}{figure.6.21}}
\newlabel{fig:kinect_coordinate_system}{{6.21}{119}{Sistema de coordenadas de NiTE}{figure.6.21}{}}
\citation{webDocumentacionOpenNI}
\@writefile{toc}{\contentsline {subsection}{\numberline {6.3.2}Evoluci\IeC {\'o}n del m\IeC {\'o}dulo de captura de im\IeC {\'a}genes}{120}{subsection.6.3.2}}
\newlabel{evolucion_del_modulo_de_captura_de_imagenes}{{6.3.2}{120}{Evolución del módulo de captura de imágenes}{subsection.6.3.2}{}}
\acronymused{OpenNI}
\acronymused{GLUT}
\@writefile{lof}{\contentsline {figure}{\numberline {6.22}{\ignorespaces Articulaciones detectadas por NiTE ~\cite  {webDocumentacionOpenNI}.}}{121}{figure.6.22}}
\newlabel{fig:esqueleto_nite}{{6.22}{121}{Articulaciones detectadas por NiTE ~\cite {webDocumentacionOpenNI}}{figure.6.22}{}}
\@writefile{toc}{\contentsline {subsubsection}{\numberline {6.3.2.1}Segunda versi\IeC {\'o}n}{121}{subsubsection.6.3.2.1}}
\acronymused{OpenNI}
\acronymused{GLUT}
\acronymused{OpenNI}
\@writefile{lof}{\contentsline {figure}{\numberline {6.23}{\ignorespaces Diagrama de clases del m\IeC {\'o}dulo de captura de im\IeC {\'a}genes (versi\IeC {\'o}n 2).}}{123}{figure.6.23}}
\newlabel{fig:DiagramaUML_v2}{{6.23}{123}{Diagrama de clases del módulo de captura de imágenes (versión 2)}{figure.6.23}{}}
\@writefile{lof}{\contentsline {figure}{\numberline {6.24}{\ignorespaces Resultado de la combinaci\IeC {\'o}n de las t\IeC {\'e}cnicas de procesamiento.}}{123}{figure.6.24}}
\newlabel{fig:modulo_captura_3}{{6.24}{123}{Resultado de la combinación de las técnicas de procesamiento}{figure.6.24}{}}
\acronymused{GLUT}
\@writefile{lof}{\contentsline {figure}{\numberline {6.25}{\ignorespaces Resultado de la eliminaci\IeC {\'o}n del fondo.}}{124}{figure.6.25}}
\newlabel{fig:modulo_captura_4}{{6.25}{124}{Resultado de la eliminación del fondo}{figure.6.25}{}}
\@writefile{lof}{\contentsline {figure}{\numberline {6.26}{\ignorespaces Dibujado del esqueleto sobre la imagen de profundidad.}}{124}{figure.6.26}}
\newlabel{fig:modulo_captura_5}{{6.26}{124}{Dibujado del esqueleto sobre la imagen de profundidad}{figure.6.26}{}}
\undonewlabel{acro:PPM}
\newlabel{acro:PPM}{{6.3.2.1}{124}{Segunda versión}{section*.39}{}}
\acronymused{PPM}
\acronymused{PPM}
\@writefile{lof}{\contentsline {figure}{\numberline {6.27}{\ignorespaces Dibujado del esqueleto eliminando el fondo.}}{125}{figure.6.27}}
\newlabel{fig:modulo_captura_6}{{6.27}{125}{Dibujado del esqueleto eliminando el fondo}{figure.6.27}{}}
\acronymused{ASCII}
\acronymused{ASCII}
\acronymused{ASCII}
\acronymused{ASCII}
\acronymused{PPM}
\acronymused{ASCII}
\@writefile{lof}{\contentsline {figure}{\numberline {6.28}{\ignorespaces Imagen correspondiente al ejemplo~\ref  {code:formato_ppm}.}}{125}{figure.6.28}}
\newlabel{fig:ppm_ejemplo}{{6.28}{125}{Imagen correspondiente al ejemplo~\ref {code:formato_ppm}}{figure.6.28}{}}
\newlabel{code:formato_ppm}{{6.4}{126}{Ejemplo del formato \acs {PPM}}{lstlisting.6.4}{}}
\@writefile{lol}{\contentsline {lstlisting}{\numberline {6.4}Ejemplo del formato \acs {PPM}.}{126}{lstlisting.6.4}}
\acronymused{PPM}
\@writefile{lof}{\contentsline {figure}{\numberline {6.29}{\ignorespaces Estructura de directorios.}}{126}{figure.6.29}}
\newlabel{fig:estructura_directorios}{{6.29}{126}{Estructura de directorios}{figure.6.29}{}}
\@writefile{toc}{\contentsline {subsubsection}{\numberline {6.3.2.2}Tercera versi\IeC {\'o}n}{126}{subsubsection.6.3.2.2}}
\acronymused{PPM}
\acronymused{OpenNI}
\acronymused{PPM}
\acronymused{OpenNI}
\acronymused{POSIX}
\@writefile{lof}{\contentsline {figure}{\numberline {6.30}{\ignorespaces Modelo de flujo de la ejecuci\IeC {\'o}n secuencial.}}{128}{figure.6.30}}
\newlabel{fig:diagrama_flujo_v1}{{6.30}{128}{Modelo de flujo de la ejecución secuencial}{figure.6.30}{}}
\acronymused{PPM}
\acronymused{PPM}
\acronymused{OpenNI}
\@writefile{lof}{\contentsline {figure}{\numberline {6.31}{\ignorespaces Modelo de flujo de la ejecuci\IeC {\'o}n concurrente.}}{129}{figure.6.31}}
\newlabel{fig:diagrama_flujo_v2}{{6.31}{129}{Modelo de flujo de la ejecución concurrente}{figure.6.31}{}}
\@writefile{toc}{\contentsline {subsubsection}{\numberline {6.3.2.3}Cuarta versi\IeC {\'o}n}{129}{subsubsection.6.3.2.3}}
\newlabel{cuarta_version}{{6.3.2.3}{129}{Cuarta versión}{subsubsection.6.3.2.3}{}}
\acronymused{PPM}
\@writefile{lot}{\contentsline {table}{\numberline {6.2}{\ignorespaces Resultados obtenidos con ficheros \acs {PPM}.}}{130}{table.6.2}}
\acronymused{PPM}
\newlabel{table:tabla_tamanos_ppm}{{6.2}{130}{Resultados obtenidos con ficheros \acs {PPM}}{table.6.2}{}}
\acronymused{PPM}
\acronymused{JPEG}
\acronymused{JPEG}
\acronymused{JPEG}
\acronymused{JPEG}
\acronymused{JPEG}
\acronymused{JPEG}
\acronymused{GNU}
\acronymused{PPM}
\@writefile{lot}{\contentsline {table}{\numberline {6.3}{\ignorespaces Resultados obtenidos con ficheros \acs {JPEG}.}}{131}{table.6.3}}
\acronymused{JPEG}
\newlabel{table:tabla_tamanos_jpeg}{{6.3}{131}{Resultados obtenidos con ficheros \acs {JPEG}}{table.6.3}{}}
\@writefile{lof}{\contentsline {figure}{\numberline {6.32}{\ignorespaces Gr\IeC {\'a}fico comparativo del n\IeC {\textordmasculine } de ficheros entre el formato \acs {PPM} y \acs {JPEG}.}}{131}{figure.6.32}}
\acronymused{PPM}
\acronymused{JPEG}
\newlabel{fig:grafico_ppmVSjpeg_ficheros}{{6.32}{131}{Gráfico comparativo del nº de ficheros entre el formato \acs {PPM} y \acs {JPEG}}{figure.6.32}{}}
\acronymused{PPM}
\acronymused{JPEG}
\acronymused{JPEG}
\acronymused{XML}
\@writefile{lof}{\contentsline {figure}{\numberline {6.33}{\ignorespaces Gr\IeC {\'a}fico comparativo del tama\IeC {\~n}o total en megabytes entre el formato \acs {PPM} y \acs {JPEG}.}}{132}{figure.6.33}}
\acronymused{PPM}
\acronymused{JPEG}
\newlabel{fig:grafico_ppmVSjpeg_tamanio}{{6.33}{132}{Gráfico comparativo del tamaño total en megabytes entre el formato \acs {PPM} y \acs {JPEG}}{figure.6.33}{}}
\acronymused{XML}
\acronymused{XML}
\acronymused{XML}
\acronymused{XML}
\@writefile{toc}{\contentsline {section}{\numberline {6.4}Iteraci\IeC {\'o}n 4: M\IeC {\'o}dulo de reconocimiento de acciones}{133}{section.6.4}}
\newlabel{m\IeC {\'o}dulo_de_reconocimiento_de_acciones}{{6.4}{133}{Iteración 4: Módulo de reconocimiento de acciones}{section.6.4}{}}
\citation{weinland:inria-00544741}
\citation{10.1109/CVPR.2008.4587737}
\citation{Joachims:1998:TCS:645326.649721}
\citation{Csurka04visualcategorization}
\citation{kaaniche:inria-00486110}
\citation{10.1109/CVPR.2008.4587527}
\citation{LaptevP07}
\newlabel{code:estructura_fichero_xml}{{6.5}{134}{Estructura fichero \acs {XML}}{lstlisting.6.5}{}}
\@writefile{lol}{\contentsline {lstlisting}{\numberline {6.5}Estructura fichero \acs {XML}.}{134}{lstlisting.6.5}}
\acronymused{XML}
\@writefile{toc}{\contentsline {subsection}{\numberline {6.4.1}Modelo Bag of Words}{134}{subsection.6.4.1}}
\newlabel{BoW}{{6.4.1}{134}{Modelo Bag of Words}{subsection.6.4.1}{}}
\acronymused{BoW}
\acronymused{BoW}
\citation{Joachims98textcategorization}
\citation{Tong:2002:SVM:944790.944793}
\citation{Lodhi:2002:TCU:944790.944799}
\citation{Cristianini:2002:LSK:607586.607620}
\citation{Zhu:2002:TKI:506309.506313}
\@writefile{lof}{\contentsline {figure}{\numberline {6.34}{\ignorespaces Funcionalidad introducida en el m\IeC {\'o}dulo (versi\IeC {\'o}n 4).}}{135}{figure.6.34}}
\newlabel{fig:mejora_modulo_captura_v4}{{6.34}{135}{Funcionalidad introducida en el módulo (versión 4)}{figure.6.34}{}}
\acronymused{BoW}
\acronymused{BoW}
\acronymused{BoW}
\citation{Kanungo:2002:EKC:628329.628801}
\@writefile{lof}{\contentsline {figure}{\numberline {6.35}{\ignorespaces Im\IeC {\'a}genes originales. Extra\IeC {\'\i }das de ``Bag-of-words models'' (S. Lazebnik, A. Torralba, L. Fei-Fei, D. Lowe, C. Szurka) y adaptadas por Rub\IeC {\'e}n Cantarero Navarro.}}{136}{figure.6.35}}
\newlabel{fig:BoW_base}{{6.35}{136}{Imágenes originales. Extraídas de ``Bag-of-words models'' (S. Lazebnik, A. Torralba, L. Fei-Fei, D. Lowe, C. Szurka) y adaptadas por Rubén Cantarero Navarro}{figure.6.35}{}}
\acronymused{BoW}
\@writefile{lof}{\contentsline {figure}{\numberline {6.36}{\ignorespaces Extracci\IeC {\'o}n de caracter\IeC {\'\i }sticas. Extra\IeC {\'\i }das de ``Bag-of-words models'' (S. Lazebnik, A. Torralba, L. Fei-Fei, D. Lowe, C. Szurka) y adaptadas por Rub\IeC {\'e}n Cantarero Navarro.}}{136}{figure.6.36}}
\newlabel{fig:extracion}{{6.36}{136}{Extracción de características. Extraídas de ``Bag-of-words models'' (S. Lazebnik, A. Torralba, L. Fei-Fei, D. Lowe, C. Szurka) y adaptadas por Rubén Cantarero Navarro}{figure.6.36}{}}
\acronymused{SVM}
\acronymused{SVM}
\@writefile{lof}{\contentsline {figure}{\numberline {6.37}{\ignorespaces Generaci\IeC {\'o}n del diccionario (clustering). Extra\IeC {\'\i }das de ``Bag-of-words models'' (S. Lazebnik, A. Torralba, L. Fei-Fei, D. Lowe, C. Szurka) y adaptadas por Rub\IeC {\'e}n Cantarero Navarro.}}{137}{figure.6.37}}
\newlabel{fig:clustering_final}{{6.37}{137}{Generación del diccionario (clustering). Extraídas de ``Bag-of-words models'' (S. Lazebnik, A. Torralba, L. Fei-Fei, D. Lowe, C. Szurka) y adaptadas por Rubén Cantarero Navarro}{figure.6.37}{}}
\acronymused{SVM}
\@writefile{lof}{\contentsline {figure}{\numberline {6.38}{\ignorespaces Cuantificaci\IeC {\'o}n de caracter\IeC {\'\i }sticas. Extra\IeC {\'\i }das de ``Bag-of-words models'' (S. Lazebnik, A. Torralba, L. Fei-Fei, D. Lowe, C. Szurka) y adaptadas por Rub\IeC {\'e}n Cantarero Navarro.}}{138}{figure.6.38}}
\newlabel{fig:histogramas}{{6.38}{138}{Cuantificación de características. Extraídas de ``Bag-of-words models'' (S. Lazebnik, A. Torralba, L. Fei-Fei, D. Lowe, C. Szurka) y adaptadas por Rubén Cantarero Navarro}{figure.6.38}{}}
\@writefile{lof}{\contentsline {figure}{\numberline {6.39}{\ignorespaces Clasificador \acs {SVM}. Extra\IeC {\'\i }das de ``Bag-of-words models'' (S. Lazebnik, A. Torralba, L. Fei-Fei, D. Lowe, C. Szurka) y adaptadas por Rub\IeC {\'e}n Cantarero Navarro.}}{138}{figure.6.39}}
\acronymused{SVM}
\newlabel{fig:bow_clasi}{{6.39}{138}{Clasificador \acs {SVM}. Extraídas de ``Bag-of-words models'' (S. Lazebnik, A. Torralba, L. Fei-Fei, D. Lowe, C. Szurka) y adaptadas por Rubén Cantarero Navarro}{figure.6.39}{}}
\@writefile{toc}{\contentsline {subsection}{\numberline {6.4.2}Implementaci\IeC {\'o}n de la soluci\IeC {\'o}n propuesta}{138}{subsection.6.4.2}}
\newlabel{solucion_propuesta}{{6.4.2}{138}{Implementación de la solución propuesta}{subsection.6.4.2}{}}
\acronymused{BoW}
\undonewlabel{acro:PERL}
\newlabel{acro:PERL}{{6.4.2}{138}{Implementación de la solución propuesta}{section*.40}{}}
\acronymused{PERL}
\acronymused{PERL}
\acronymused{GUI}
\acronymused{PERL}
\acronymused{PERL}
\acronymused{PERL}
\acronymused{PERL}
\acronymused{PERL}
\acronymused{PERL}
\acronymused{BoW}
\acronymused{SVM}
\@writefile{lof}{\contentsline {figure}{\numberline {6.40}{\ignorespaces Diagrama de flujo de la soluci\IeC {\'o}n propuesta.}}{140}{figure.6.40}}
\newlabel{fig:BoW_diagrama_general_v1}{{6.40}{140}{Diagrama de flujo de la solución propuesta}{figure.6.40}{}}
\acronymused{SVM}
\acronymused{BoW}
\acronymused{SVM}
\acronymused{SVM}
\acronymused{SVM}
\@writefile{lof}{\contentsline {figure}{\numberline {6.41}{\ignorespaces Diagrama de flujo de seg\IeC {\'u}n las etapas.}}{142}{figure.6.41}}
\newlabel{fig:BoW_diagrama_general_v2}{{6.41}{142}{Diagrama de flujo de según las etapas}{figure.6.41}{}}
\undonewlabel{acro:IXMAS}
\newlabel{acro:IXMAS}{{6.4.2}{142}{Implementación de la solución propuesta}{section*.41}{}}
\acronymused{IXMAS}
\acronymused{IXMAS}
\undonewlabel{acro:INRIA}
\newlabel{acro:INRIA}{{6.4.2}{142}{Implementación de la solución propuesta}{section*.42}{}}
\acronymused{INRIA}
\acronymused{IXMAS}
\newlabel{acciones}{{6.4.2}{142}{Implementación de la solución propuesta}{figure.6.41}{}}
\acronymused{PERL}
\@writefile{toc}{\contentsline {subsubsection}{\numberline {6.4.2.1}Fase 1: Configuraci\IeC {\'o}n inicial}{143}{subsubsection.6.4.2.1}}
\acronymused{BoW}
\@writefile{lof}{\contentsline {figure}{\numberline {6.42}{\ignorespaces M\IeC {\'o}dulos del sistema.}}{144}{figure.6.42}}
\newlabel{fig:submodulos_BoW}{{6.42}{144}{Módulos del sistema}{figure.6.42}{}}
\@writefile{toc}{\contentsline {subsubsection}{\numberline {6.4.2.2}Fase 2: Segmentaci\IeC {\'o}n de v\IeC {\'\i }deos}{144}{subsubsection.6.4.2.2}}
\newlabel{segmentacion_de_videos}{{6.4.2.2}{144}{Fase 2: Segmentación de vídeos}{subsubsection.6.4.2.2}{}}
\acronymused{PERL}
\@writefile{lof}{\contentsline {figure}{\numberline {6.43}{\ignorespaces Estructura de directorios de la soluci\IeC {\'o}n propuesta.}}{145}{figure.6.43}}
\newlabel{fig:BoW_estructura_directorios}{{6.43}{145}{Estructura de directorios de la solución propuesta}{figure.6.43}{}}
\newlabel{code:estructura_fichero_segmented}{{6.6}{145}{Estructura fichero \textit {ACTOR\_frame\_segmented.txt}}{lstlisting.6.6}{}}
\@writefile{lol}{\contentsline {lstlisting}{\numberline {6.6}Estructura fichero \textit  {ACTOR\_frame\_segmented.txt}.}{145}{lstlisting.6.6}}
\@writefile{lof}{\contentsline {figure}{\numberline {6.44}{\ignorespaces Diagrama de flujo de \textit  {build\_segmented\_videos}.}}{146}{figure.6.44}}
\newlabel{fig:diagrama_fase_2}{{6.44}{146}{Diagrama de flujo de \textit {build\_segmented\_videos}}{figure.6.44}{}}
\@writefile{toc}{\contentsline {subsubsection}{\numberline {6.4.2.3}Procesamiento}{147}{subsubsection.6.4.2.3}}
\citation{Barron:1994:POF:181447.181452}
\citation{Smith1995}
\citation{Isard:1998:COM:296193.296194}
\acronymused{BoW}
\@writefile{lof}{\contentsline {figure}{\numberline {6.45}{\ignorespaces Fases de procesamiento.}}{148}{figure.6.45}}
\newlabel{fig:BoW_diagrama_procesamiento_v1}{{6.45}{148}{Fases de procesamiento}{figure.6.45}{}}
\@writefile{toc}{\contentsline {paragraph}{\numberline {6.4.2.3.1}Fase 3: Extracci\IeC {\'o}n de caracter\IeC {\'\i }sticas \newline  }{148}{paragraph.6.4.2.3.1}}
\newlabel{extraccion_de_caracteristicas}{{6.4.2.3.1}{148}{Fase 3: Extracción de características \newline }{paragraph.6.4.2.3.1}{}}
\acronymused{BoW}
\citation{ForGul87-ISPRS}
\citation{Harris}
\citation{Schmid:2000:EIP:350676.350678}
\citation{Schmid:1997:LGI:252862.252900}
\citation{Smith1995}
\citation{Lowe99objectrecognition}
\citation{bb10486}
\citation{Laptev:2005:SIP:1085595.1085605}
\citation{Sipiran:2011:HRE:2134342.2134343}
\undonewlabel{acro:STIP}
\newlabel{acro:STIP}{{6.4.2.3.1}{149}{Fase 3: Extracción de características \newline }{section*.43}{}}
\acronymused{STIP}
\acronymused{STIP}
\acronymused{STIP}
\acronymused{STIP}
\acronymused{PERL}
\@writefile{lof}{\contentsline {figure}{\numberline {6.46}{\ignorespaces Diagrama de la fase de extracci\IeC {\'o}n de caracter\IeC {\'\i }sticas.}}{150}{figure.6.46}}
\newlabel{fig:BoW_diagrama_procesamiento_v2}{{6.46}{150}{Diagrama de la fase de extracción de características}{figure.6.46}{}}
\acronymused{STIP}
\acronymused{STIP}
\undonewlabel{acro:HOG}
\newlabel{acro:HOG}{{6.4.2.3.1}{151}{Fase 3: Extracción de características \newline }{section*.44}{}}
\acronymused{HOG}
\undonewlabel{acro:HOF}
\newlabel{acro:HOF}{{6.4.2.3.1}{151}{Fase 3: Extracción de características \newline }{section*.45}{}}
\acronymused{HOF}
\acronymused{STIP}
\acronymused{HOG}
\acronymused{HOF}
\acronymused{STIP}
\@writefile{lof}{\contentsline {figure}{\numberline {6.47}{\ignorespaces Captura de \textit  {stipdet} de una imagen de profundidad capturada con Kinect.}}{151}{figure.6.47}}
\newlabel{fig:stipdet}{{6.47}{151}{Captura de \textit {stipdet} de una imagen de profundidad capturada con Kinect}{figure.6.47}{}}
\acronymused{HOF}
\acronymused{HOG}
\@writefile{toc}{\contentsline {paragraph}{\numberline {6.4.2.3.2}Fase 4: Clustering \newline  }{152}{paragraph.6.4.2.3.2}}
\acronymused{HOF}
\acronymused{PERL}
\acronymused{BoW}
\acronymused{HOF}
\acronymused{HOF}
\undonewlabel{acro:LUT}
\newlabel{acro:LUT}{{6.4.2.3.2}{153}{Fase 4: Clustering \newline }{section*.46}{}}
\acronymused{LUT}
\acronymused{SVM}
\acronymused{LUT}
\acronymused{LUT}
\acronymused{BoW}
\@writefile{lof}{\contentsline {figure}{\numberline {6.48}{\ignorespaces Diagrama de \textit  {new\_sequence\_cluster\_choice\_k}}}{154}{figure.6.48}}
\newlabel{fig:BoW_diagrama_procesamiento_v3}{{6.48}{154}{Diagrama de \textit {new\_sequence\_cluster\_choice\_k}}{figure.6.48}{}}
\@writefile{toc}{\contentsline {paragraph}{\numberline {6.4.2.3.3}Fase 5: Proceso de reconocimiento \newline  }{154}{paragraph.6.4.2.3.3}}
\citation{Hsu:2002:SDM:599613.599666}
\citation{Hsu:2002:CMM:2325784.2326870}
\acronymused{SVM}
\acronymused{PERL}
\acronymused{SVM}
\acronymused{SVM}
\acronymused{SVM}
\acronymused{SVM}
\acronymused{SVM}
\acronymused{SVM}
\acronymused{SVM}
\acronymused{SVM}
\newlabel{formato_svm}{{6.4.2.3.3}{156}{Fase 5: Proceso de reconocimiento \newline }{figure.6.49}{}}
\newlabel{code:estructura_fichero_svm}{{6.7}{156}{Estructura fichero de datos del clasificador \acs {SVM}}{lstlisting.6.7}{}}
\@writefile{lol}{\contentsline {lstlisting}{\numberline {6.7}Estructura fichero de datos del clasificador \acs {SVM}.}{156}{lstlisting.6.7}}
\acronymused{SVM}
\@writefile{toc}{\contentsline {subparagraph}{Etapa de training \newline  }{156}{lstnumber.6.8.7}}
\newlabel{etapa_de_training}{{6.4.2.3.3}{156}{Etapa de training \newline }{lstnumber.6.8.7}{}}
\newlabel{code:estructura_fichero_svm_ejemplo}{{6.8}{157}{Ejemplo de la estructura fichero de datos del clasificador \acs {SVM}}{lstlisting.6.8}{}}
\@writefile{lol}{\contentsline {lstlisting}{\numberline {6.8}Ejemplo de la estructura fichero de datos del clasificador \acs {SVM}.}{157}{lstlisting.6.8}}
\acronymused{SVM}
\acronymused{SVM}
\acronymused{SVM}
\acronymused{LUT}
\@writefile{toc}{\contentsline {subparagraph}{Etapa de testing \newline  }{158}{lstnumber.6.8.7}}
\acronymused{SVM}
\acronymused{LUT}
\@writefile{toc}{\contentsline {section}{\numberline {6.5}Iteraci\IeC {\'o}n 5: Interfaz gr\IeC {\'a}fica}{159}{section.6.5}}
\newlabel{interfaz_gr\IeC {\'a}fica}{{6.5}{159}{Iteración 5: Interfaz gráfica}{section.6.5}{}}
\acronymused{KDE}
\@writefile{toc}{\contentsline {subparagraph}{Captura de v\IeC {\'\i }deo \newline  }{160}{section.6.5}}
\acronymused{JPEG}
\acronymused{JPEG}
\@writefile{toc}{\contentsline {subparagraph}{Etiquetado de v\IeC {\'\i }deo \newline  }{160}{figure.6.50}}
\@writefile{toc}{\contentsline {subparagraph}{Clasificaci\IeC {\'o}n \newline  }{161}{figure.6.51}}
\@writefile{toc}{\contentsline {subparagraph}{Inspector de resultados \newline  }{161}{figure.6.52}}
\@writefile{lof}{\contentsline {figure}{\numberline {6.49}{\ignorespaces Diagrama de la fase de proceso de reconocimiento.}}{163}{figure.6.49}}
\newlabel{fig:BoW_diagrama_procesamiento_v4}{{6.49}{163}{Diagrama de la fase de proceso de reconocimiento}{figure.6.49}{}}
\@writefile{lof}{\contentsline {figure}{\numberline {6.50}{\ignorespaces Funcionalidad de Grabaci\IeC {\'o}n.}}{164}{figure.6.50}}
\newlabel{fig:GUI_1}{{6.50}{164}{Funcionalidad de Grabación}{figure.6.50}{}}
\@writefile{lof}{\contentsline {figure}{\numberline {6.51}{\ignorespaces Funcionalidad de etiquetado.}}{164}{figure.6.51}}
\newlabel{fig:GUI_2}{{6.51}{164}{Funcionalidad de etiquetado}{figure.6.51}{}}
\@writefile{lof}{\contentsline {figure}{\numberline {6.52}{\ignorespaces Secci\IeC {\'o}n de clasificaci\IeC {\'o}n.}}{165}{figure.6.52}}
\newlabel{fig:GUI_3}{{6.52}{165}{Sección de clasificación}{figure.6.52}{}}
\@writefile{lof}{\contentsline {figure}{\numberline {6.53}{\ignorespaces Secci\IeC {\'o}n de Resultados.}}{165}{figure.6.53}}
\newlabel{fig:GUI_4}{{6.53}{165}{Sección de Resultados}{figure.6.53}{}}
\citation{Weinland:2006:FVA:1225844.1225855}
\citation{10.1109/CVPR.2008.4587756}
\@writefile{toc}{\contentsline {chapter}{\numberline {7}Resultados}{167}{chapter.7}}
\@writefile{lof}{\addvspace {10\p@ }}
\@writefile{lot}{\addvspace {10\p@ }}
\newlabel{chap:resultados}{{7}{167}{Resultados}{chapter.7}{}}
\@writefile{toc}{\contentsline {section}{\numberline {7.1}Dataset de entrenamiento empleado}{167}{section.7.1}}
\acronymused{IXMAS}
\acronymused{IXMAS}
\citation{wbIxmas}
\acronymused{IXMAS}
\acronymused{IXMAS}
\newlabel{acciones}{{7.1}{168}{Dataset de entrenamiento empleado}{section.7.1}{}}
\@writefile{toc}{\contentsline {section}{\numberline {7.2}Recogida de datos de prueba}{168}{section.7.2}}
\acronymused{IXMAS}
\@writefile{lof}{\contentsline {figure}{\numberline {7.1}{\ignorespaces Ejemplo de \acs {IXMAS}. ~\cite  {wbIxmas}}}{169}{figure.7.1}}
\acronymused{IXMAS}
\newlabel{fig:ixmas}{{7.1}{169}{Ejemplo de \acs {IXMAS}. ~\cite {wbIxmas}}{figure.7.1}{}}
\acronymused{IXMAS}
\@writefile{lof}{\contentsline {figure}{\numberline {7.2}{\ignorespaces Escenario de grabaci\IeC {\'o}n empleado.}}{170}{figure.7.2}}
\newlabel{fig:escenario_vacio}{{7.2}{170}{Escenario de grabación empleado}{figure.7.2}{}}
\@writefile{lot}{\contentsline {table}{\numberline {7.1}{\ignorespaces Informaci\IeC {\'o}n y n\IeC {\'u}mero de acciones realizado por cada actor.}}{170}{table.7.1}}
\newlabel{tab:informacion_actores}{{7.1}{170}{Información y número de acciones realizado por cada actor}{table.7.1}{}}
\citation{conf/cvpr/RuiA00}
\citation{conf/cvpr/BlackYJF97}
\citation{conf/event/AliA01}
\citation{conf/icra/ShimosakaMS07}
\citation{conf/cvpr/ShiWCS08}
\@writefile{toc}{\contentsline {section}{\numberline {7.3}An\IeC {\'a}lisis de los resultados}{171}{section.7.3}}
\@writefile{lof}{\contentsline {figure}{\numberline {7.3}{\ignorespaces Porcentaje de acierto de cada acci\IeC {\'o}n seg\IeC {\'u}n el tipo de imagen (entorno guiado y sin guiar).}}{172}{figure.7.3}}
\newlabel{fig:grafico_acciones}{{7.3}{172}{Porcentaje de acierto de cada acción según el tipo de imagen (entorno guiado y sin guiar)}{figure.7.3}{}}
\@writefile{lot}{\contentsline {table}{\numberline {7.2}{\ignorespaces Porcentaje de acierto de cada actor (sin guiar) en cada tipo de acci\IeC {\'o}n seg\IeC {\'u}n el tipo de imagen.}}{173}{table.7.2}}
\newlabel{tab:porcentaje_acierto_por_actor}{{7.2}{173}{Porcentaje de acierto de cada actor (sin guiar) en cada tipo de acción según el tipo de imagen}{table.7.2}{}}
\@writefile{lot}{\contentsline {table}{\numberline {7.3}{\ignorespaces Porcentaje de acierto de cada actor (guiado) en cada tipo de acci\IeC {\'o}n seg\IeC {\'u}n el tipo de imagen.}}{174}{table.7.3}}
\newlabel{tab:porcentaje_acierto_por_actor_controlado}{{7.3}{174}{Porcentaje de acierto de cada actor (guiado) en cada tipo de acción según el tipo de imagen}{table.7.3}{}}
\@writefile{lot}{\contentsline {table}{\numberline {7.4}{\ignorespaces Porcentaje de acierto de cada acci\IeC {\'o}n seg\IeC {\'u}n el tipo de imagen (entorno guiado y sin guiar).}}{175}{table.7.4}}
\newlabel{tab:porcentaje_acierto_por_accion}{{7.4}{175}{Porcentaje de acierto de cada acción según el tipo de imagen (entorno guiado y sin guiar)}{table.7.4}{}}
\@writefile{lot}{\contentsline {table}{\numberline {7.5}{\ignorespaces Matriz de confusi\IeC {\'o}n de los v\IeC {\'\i }deos RGB (entorno guiado y sin guiar).}}{176}{table.7.5}}
\newlabel{tab:matriz_confusion_rgb}{{7.5}{176}{Matriz de confusión de los vídeos RGB (entorno guiado y sin guiar)}{table.7.5}{}}
\@writefile{lot}{\contentsline {table}{\numberline {7.6}{\ignorespaces Matriz de confusi\IeC {\'o}n de los v\IeC {\'\i }deos de profundidad (entorno guiado y sin guiar).}}{176}{table.7.6}}
\newlabel{tab:matriz_confusion_depth}{{7.6}{176}{Matriz de confusión de los vídeos de profundidad (entorno guiado y sin guiar)}{table.7.6}{}}
\citation{MartinezDelRincon:2013:CRH:2537174.2537391}
\citation{MartinezDelRincon:2013:CRH:2537174.2537391}
\citation{MartinezDelRincon:2013:CRH:2537174.2537391}
\citation{MartinezDelRincon:2013:CRH:2537174.2537391}
\@writefile{lot}{\contentsline {table}{\numberline {7.7}{\ignorespaces Matriz de confusi\IeC {\'o}n de los v\IeC {\'\i }deos de los esqueletos (entorno guiado y sin guiar).}}{177}{table.7.7}}
\newlabel{tab:matriz_confusion_esqueleto}{{7.7}{177}{Matriz de confusión de los vídeos de los esqueletos (entorno guiado y sin guiar)}{table.7.7}{}}
\acronymused{BoW}
\acronymused{BoW}
\acronymused{IXMAS}
\acronymused{KinBehR}
\acronymused{IXMAS}
\acronymused{BoW}
\citation{MartinezDelRincon:2013:CRH:2537174.2537391}
\acronymused{IXMAS}
\acronymused{IXMAS}
\acronymused{BoW}
\@writefile{lot}{\contentsline {table}{\numberline {7.8}{\ignorespaces Comparaci\IeC {\'o}n de resultados con ~\cite  {MartinezDelRincon:2013:CRH:2537174.2537391}.}}{178}{table.7.8}}
\newlabel{tab:comparacion_de_resultados}{{7.8}{178}{Comparación de resultados con ~\cite {MartinezDelRincon:2013:CRH:2537174.2537391}}{table.7.8}{}}
\acronymused{KinBehR}
\acronymused{BoW}
\acronymused{KinBehR}
\acronymused{IXMAS}
\acronymused{IXMAS}
\acronymused{IXMAS}
\acronymused{BoW}
\acronymused{BoW}
\acronymused{BoW}
\@writefile{lot}{\contentsline {table}{\numberline {7.9}{\ignorespaces Comparaci\IeC {\'o}n de resultados con ~\cite  {MartinezDelRincon:2013:CRH:2537174.2537391}.}}{178}{table.7.9}}
\newlabel{tab:comparacion_de_resultados2}{{7.9}{178}{Comparación de resultados con ~\cite {MartinezDelRincon:2013:CRH:2537174.2537391}}{table.7.9}{}}
\@writefile{lof}{\contentsline {figure}{\numberline {7.4}{\ignorespaces Problema encontrado en v\IeC {\'\i }deos de profundidad.}}{179}{figure.7.4}}
\newlabel{fig:problema_depth}{{7.4}{179}{Problema encontrado en vídeos de profundidad}{figure.7.4}{}}
\@writefile{lof}{\contentsline {figure}{\numberline {7.5}{\ignorespaces Problema encontrado en v\IeC {\'\i }deos de esqueletos.}}{179}{figure.7.5}}
\newlabel{fig:problema_esqueleto}{{7.5}{179}{Problema encontrado en vídeos de esqueletos}{figure.7.5}{}}
\acronymused{IXMAS}
\acronymused{IXMAS}
\@writefile{toc}{\contentsline {chapter}{\numberline {8}Conclusiones y trabajo futuro}{181}{chapter.8}}
\@writefile{lof}{\addvspace {10\p@ }}
\@writefile{lot}{\addvspace {10\p@ }}
\newlabel{chap:conclusiones}{{8}{181}{Conclusiones y trabajo futuro}{chapter.8}{}}
\@writefile{toc}{\contentsline {section}{\numberline {8.1}Objetivos alcanzados}{181}{section.8.1}}
\acronymused{SVM}
\acronymused{BoW}
\acronymused{OpenNI}
\acronymused{OpenNI}
\acronymused{OpenNI}
\citation{Weinland:2006:FVA:1225844.1225855}
\citation{10.1109/CVPR.2008.4587756}
\acronymused{BoW}
\acronymused{SVM}
\acronymused{IXMAS}
\acronymused{IXMAS}
\@writefile{toc}{\contentsline {section}{\numberline {8.2}Trabajo futuro}{184}{section.8.2}}
\acronymused{XML}
\acronymused{KinBehR}
\@writefile{toc}{\contentsline {chapter}{\numberline {9}Conclusions and future work}{187}{chapter.9}}
\@writefile{lof}{\addvspace {10\p@ }}
\@writefile{lot}{\addvspace {10\p@ }}
\@writefile{toc}{\contentsline {section}{\numberline {9.1}Achieved objectives}{187}{section.9.1}}
\acronymused{SVM}
\acronymused{BoW}
\acronymused{OpenNI}
\acronymused{OpenNI}
\acronymused{OpenNI}
\acronymused{OpenNI}
\acronymused{OpenNI}
\acronymused{OpenNI}
\acronymused{BoW}
\acronymused{SVM}
\citation{Weinland:2006:FVA:1225844.1225855}
\citation{10.1109/CVPR.2008.4587756}
\acronymused{IXMAS}
\acronymused{IXMAS}
\@writefile{toc}{\contentsline {section}{\numberline {9.2}Future work}{190}{section.9.2}}
\acronymused{XML}
\acronymused{KinBehR}
\citation{borenstein2012making}
\@writefile{toc}{\contentsline {chapter}{\numberline {A}Listados de los ejemplos con Processing}{195}{appendix.Alph1}}
\@writefile{lof}{\addvspace {10\p@ }}
\@writefile{lot}{\addvspace {10\p@ }}
\newlabel{chap:anexo1}{{A}{195}{Listados de los ejemplos con Processing}{appendix.Alph1}{}}
\@writefile{toc}{\contentsline {section}{\numberline {A.1}Ejemplo 1}{195}{section.Alph1.1}}
\newlabel{code:processing_ejem1}{{A.1}{195}{«Ejemplo 1» ~\cite {borenstein2012making}}{lstlisting.Alph1.1}{}}
\@writefile{lol}{\contentsline {lstlisting}{\numberline {A.1}\IeC {\guillemotleft }Ejemplo 1\IeC {\guillemotright } ~\cite  {borenstein2012making}}{195}{lstlisting.Alph1.1}}
\citation{borenstein2012making}
\@writefile{toc}{\contentsline {section}{\numberline {A.2}Ejemplo 2}{196}{section.Alph1.2}}
\newlabel{code:processing_ejem2}{{A.2}{196}{«Ejemplo 2» ~\cite {borenstein2012making}}{lstlisting.Alph1.2}{}}
\@writefile{lol}{\contentsline {lstlisting}{\numberline {A.2}\IeC {\guillemotleft }Ejemplo 2\IeC {\guillemotright } ~\cite  {borenstein2012making}}{196}{lstlisting.Alph1.2}}
\citation{borenstein2012making}
\@writefile{toc}{\contentsline {section}{\numberline {A.3}Primer ejemplo de nube de puntos}{197}{section.Alph1.3}}
\newlabel{code:processing_nube_puntos_1}{{A.3}{197}{«Primer ejemplo Nube de puntos» ~\cite {borenstein2012making}}{lstlisting.Alph1.3}{}}
\@writefile{lol}{\contentsline {lstlisting}{\numberline {A.3}\IeC {\guillemotleft }Primer ejemplo Nube de puntos\IeC {\guillemotright } ~\cite  {borenstein2012making}}{197}{lstlisting.Alph1.3}}
\citation{borenstein2012making}
\@writefile{toc}{\contentsline {section}{\numberline {A.4}Primer ejemplo de nube de puntos con movimiento}{198}{section.Alph1.4}}
\newlabel{code:processing_nube_puntos_2}{{A.4}{198}{«Primer ejemplo Nube de puntos con movimiento» ~\cite {borenstein2012making}}{lstlisting.Alph1.4}{}}
\@writefile{lol}{\contentsline {lstlisting}{\numberline {A.4}\IeC {\guillemotleft }Primer ejemplo Nube de puntos con movimiento\IeC {\guillemotright } ~\cite  {borenstein2012making}}{198}{lstlisting.Alph1.4}}
\citation{borenstein2012making}
\@writefile{toc}{\contentsline {section}{\numberline {A.5}Primer ejemplo de nube de puntos a color}{199}{section.Alph1.5}}
\newlabel{code:processing_nube_puntos_3}{{A.5}{199}{«Primer ejemplo Nube de puntos a color» ~\cite {borenstein2012making}}{lstlisting.Alph1.5}{}}
\@writefile{lol}{\contentsline {lstlisting}{\numberline {A.5}\IeC {\guillemotleft }Primer ejemplo Nube de puntos a color\IeC {\guillemotright } ~\cite  {borenstein2012making}}{199}{lstlisting.Alph1.5}}
\@writefile{toc}{\contentsline {section}{\numberline {A.6}Dibujando con Kinect}{200}{section.Alph1.6}}
\newlabel{code:processing_dibujando_con_kinect}{{A.6}{200}{«Dibujando con Kinect» ~\cite {borenstein2012making}}{lstlisting.Alph1.6}{}}
\@writefile{lol}{\contentsline {lstlisting}{\numberline {A.6}\IeC {\guillemotleft }Dibujando con Kinect\IeC {\guillemotright } ~\cite  {borenstein2012making}}{200}{lstlisting.Alph1.6}}
\citation{borenstein2012making}
\@writefile{toc}{\contentsline {section}{\numberline {A.7}\IeC {\'A}lbum de fotos}{202}{section.Alph1.7}}
\newlabel{code:processing_album_de_fotos}{{A.7}{202}{«Álbum de fotos» ~\cite {borenstein2012making}}{lstlisting.Alph1.7}{}}
\@writefile{lol}{\contentsline {lstlisting}{\numberline {A.7}\IeC {\guillemotleft }\IeC {\'A}lbum de fotos\IeC {\guillemotright } ~\cite  {borenstein2012making}}{202}{lstlisting.Alph1.7}}
\citation{borenstein2012making}
\@writefile{toc}{\contentsline {section}{\numberline {A.8}Bater\IeC {\'\i }a musical}{204}{section.Alph1.8}}
\newlabel{code:bateria_musical_hotpoint}{{A.8}{204}{Clase Hotpoint de la aplicación «Batería musical» ~\cite {borenstein2012making}}{lstlisting.Alph1.8}{}}
\@writefile{lol}{\contentsline {lstlisting}{\numberline {A.8}Clase Hotpoint de la aplicaci\IeC {\'o}n \IeC {\guillemotleft }Bater\IeC {\'\i }a musical\IeC {\guillemotright } ~\cite  {borenstein2012making}}{204}{lstlisting.Alph1.8}}
\citation{borenstein2012making}
\newlabel{code:bateria_musical_main}{{A.9}{205}{Clase principal de la aplicación «Batería musical» ~\cite {borenstein2012making}}{lstlisting.Alph1.9}{}}
\@writefile{lol}{\contentsline {lstlisting}{\numberline {A.9}Clase principal de la aplicaci\IeC {\'o}n \IeC {\guillemotleft }Bater\IeC {\'\i }a musical\IeC {\guillemotright } ~\cite  {borenstein2012making}}{205}{lstlisting.Alph1.9}}
\citation{borenstein2012making}
\@writefile{toc}{\contentsline {chapter}{\numberline {B}M\IeC {\'o}dulo de captura de im\IeC {\'a}genes}{209}{appendix.Alph2}}
\@writefile{lof}{\addvspace {10\p@ }}
\@writefile{lot}{\addvspace {10\p@ }}
\newlabel{chap:anexo2}{{B}{209}{Módulo de captura de imágenes}{appendix.Alph2}{}}
\@writefile{toc}{\contentsline {section}{\numberline {B.1}Dise\IeC {\~n}o definitivo}{209}{section.Alph2.1}}
\@writefile{toc}{\contentsline {subsection}{\numberline {B.1.1}Modelo de clases definitivo}{209}{subsection.Alph2.1.1}}
\@writefile{lof}{\contentsline {figure}{\numberline {B.1}{\ignorespaces Diagrama de clases.}}{209}{figure.Alph2.1}}
\newlabel{fig:DiagramaUML_v3}{{B.1}{209}{Diagrama de clases}{figure.Alph2.1}{}}
\@writefile{toc}{\contentsline {subsection}{\numberline {B.1.2}Estructura de directorio definitivo}{210}{subsection.Alph2.1.2}}
\@writefile{lof}{\contentsline {figure}{\numberline {B.2}{\ignorespaces Estructura de directorios.}}{210}{figure.Alph2.2}}
\newlabel{fig:estructura_directorios_v2}{{B.2}{210}{Estructura de directorios}{figure.Alph2.2}{}}
\@writefile{toc}{\contentsline {subsection}{\numberline {B.1.3}Modelo de flujo de la ejecuci\IeC {\'o}n}{211}{subsection.Alph2.1.3}}
\@writefile{lof}{\contentsline {figure}{\numberline {B.3}{\ignorespaces Modelo de flujo de la ejecuci\IeC {\'o}n concurrente.}}{211}{figure.Alph2.3}}
\newlabel{fig:diagrama_flujo_v3}{{B.3}{211}{Modelo de flujo de la ejecución concurrente}{figure.Alph2.3}{}}
\@writefile{toc}{\contentsline {chapter}{\numberline {C}Formulario de consentimiento}{213}{appendix.Alph3}}
\@writefile{lof}{\addvspace {10\p@ }}
\@writefile{lot}{\addvspace {10\p@ }}
\newlabel{chap:anexo4}{{C}{213}{Formulario de consentimiento}{appendix.Alph3}{}}
\@writefile{toc}{\contentsline {chapter}{\numberline {D}Conclusi\IeC {\'o}n personal}{219}{appendix.Alph4}}
\@writefile{lof}{\addvspace {10\p@ }}
\@writefile{lot}{\addvspace {10\p@ }}
\acronymused{TFG}
\acronymused{PERL}
\acronymused{KinBehR}
\bibdata{main}
\bibcite{conf/event/AliA01}{AA01}
\bibcite{Anguita:2012:HAR:2437855.2437888}{AGO{$^{+}$}12}
\bibcite{Ahmad:2008:HAR:1361741.1361851}{AL08}
\bibcite{ann}{ann14}
\bibcite{scrum1}{ASRW02}
\bibcite{Barron:1994:POF:181447.181452}{BFB94}
\bibcite{borenstein2012making}{Bor12}
\bibcite{bsvm}{bsv14}
\bibcite{catuhe2012programming}{Cat12}
\bibcite{Csurka04visualcategorization}{CDF{$^{+}$}04}
\bibcite{conf/cvpr/BlackYJF97}{con97}
\@writefile{toc}{\contentsline {chapter}{Referencias}{221}{appendix*.47}}
\bibcite{Cristianini:2002:LSK:607586.607620}{CSTL02}
\bibcite{davison2012kinect}{Dav12}
\bibcite{dia}{dia14}
\bibcite{emacs}{ema14}
\bibcite{falahati2013openni}{Fal13}
\bibcite{HARUStC:2009}{FCTL10}
\bibcite{ffmpeg}{ffm14}
\bibcite{ForGul87-ISPRS}{FG87}
\bibcite{Fernando:2003:CTD:862247}{FK03}
\bibcite{gcc}{gcc14}
\bibcite{gimp}{gim14}
\bibcite{glut}{glu14}
\bibcite{Hsu:2002:CMM:2325784.2326870}{HL02a}
\bibcite{Hsu:2002:SDM:599613.599666}{HL02b}
\bibcite{Harris}{HS88}
\bibcite{bb10486}{HVC00}
\bibcite{Isard:1998:COM:296193.296194}{IB98}
\bibcite{jana2012kinect}{Jan12}
\bibcite{Joachims:1998:TCS:645326.649721}{Joa98a}
\bibcite{Joachims98textcategorization}{Joa98b}
\bibcite{kaaniche:inria-00486110}{KB10}
\bibcite{Kramer:2012:HK:2207813}{KBC{$^{+}$}12}
\bibcite{kean2011meet}{KHP11}
\bibcite{Kilgard:1996:OPX:232898}{Kil96}
\bibcite{Kuehne11}{KJG{$^{+}$}11}
\bibcite{Kanungo:2002:EKC:628329.628801}{KMN{$^{+}$}02}
\bibcite{Laptev:2005:SIP:1085595.1085605}{Lap05}
\bibcite{10.1109/CVPR.2008.4587527}{LAS08}
\bibcite{Lewandowski:2010:VSA:1888212.1888254}{LMN10}
\bibcite{10.1109/CVPR.2008.4587756}{LMSR08}
\bibcite{Lowe99objectrecognition}{Low99}
\bibcite{LaptevP07}{LP07}
\bibcite{Lodhi:2002:TCU:944790.944799}{LSST{$^{+}$}02}
\bibcite{Mart02}{Mar03}
\bibcite{10.1109/AVSS.2009.46}{MCOUHJ{$^{+}$}09}
\bibcite{scrum2}{MDD10}
\bibcite{MartinezDelRincon:2013:CRH:2537174.2537391}{MDRSN13}
\bibcite{mercurial}{mer14}
\bibcite{miles2012learn}{Mil12}
\bibcite{Nebel:2011:CMC:2045195.2045230}{NLT{$^{+}$}11}
\bibcite{opencv}{ope14}
\bibcite{processing}{pro14}
\bibcite{qt}{qt14}
\bibcite{conf/cvpr/RuiA00}{RA00}
\bibcite{Smith1995}{SB95}
\bibcite{Schwaber:2001:ASD:559553}{SB01}
\bibcite{Sipiran:2011:HRE:2134342.2134343}{SB11}
\bibcite{simpleopenni}{sim14}
\bibcite{Schmid:1997:LGI:252862.252900}{SM97}
\bibcite{Schmid:2000:EIP:350676.350678}{SMB00}
\bibcite{Stallman:2004:GMP:1205748}{SMS04}
\bibcite{conf/icra/ShimosakaMS07}{SMS07}
\bibcite{stipdept}{sti14}
\bibcite{Stroustrup:2000:CPL:518791}{Str00}
\bibcite{conf/cvpr/ShiWCS08}{SWCS08}
\bibcite{Talbot:2013:ULW:2523292}{Tal13}
\bibcite{Tong:2002:SVM:944790.944793}{TK02}
\bibcite{Trucco:1998:ITC:551277}{TV98}
\bibcite{vezzani2010_281}{VBC10}
\bibcite{webb2012beginning}{WA12}
\bibcite{wbIxmas}{wbI14}
\bibcite{weinland:inria-00544741}{WBR07}
\bibcite{wbTedcas}{wbT14a}
\bibcite{wbTeoPark}{wbT14b}
\bibcite{wbUbiInteractive}{wbU14}
\bibcite{wbVirtualRehab}{wbV14}
\bibcite{webkscan3d}{web14a}
\bibcite{webFitnect}{web14b}
\bibcite{webWiiMoteaxis}{web14c}
\bibcite{webAxusXtion}{web14d}
\bibcite{webUSBbeagle480}{web14e}
\bibcite{webJohnnyLee}{web14f}
\bibcite{webjumpido}{web14g}
\bibcite{web3DHand}{web14h}
\bibcite{webRiverCrossing}{web14i}
\bibcite{webDocumentacionSDK}{web14j}
\bibcite{webDocumentacionKinect}{web14k}
\bibcite{webKinectmath}{web14l}
\bibcite{webTomoto}{web14m}
\bibcite{webMicrosoft}{web14n}
\bibcite{webKinectEducation}{web14o}
\bibcite{webPlayStation}{web14p}
\bibcite{webCoolerVideoconferencing}{web14q}
\bibcite{webSignLanguageTranslator}{web14r}
\bibcite{webMinorityReport}{web14s}
\bibcite{webWiiMote}{web14t}
\bibcite{webDocumentacionOpenNI}{web14u}
\bibcite{webProcessing}{web14v}
\bibcite{webNAVI}{web14w}
\bibcite{webPrincessLeia}{web14x}
\bibcite{webSigmanil}{web14y}
\bibcite{webfaseScrum}{web14z}
\bibcite{Weinland:2006:FVA:1225844.1225855}{WRB06}
\bibcite{Wang:2008:VLR:1363359.1363378}{WS08}
\bibcite{Xu:2012:CHA:2223949.2224075}{XZSS12}
\bibcite{10.1109/CVPR.2008.4587737}{YKS08}
\bibcite{Zhu:2002:TKI:506309.506313}{ZRZ02}
