\select@language {spanish}
\addvspace {10\p@ }
\addvspace {10\p@ }
\addvspace {10\p@ }
\addvspace {10\p@ }
\addvspace {10\p@ }
\addvspace {10\p@ }
\addvspace {10\p@ }
\addvspace {10\p@ }
\contentsline {table}{\numberline {4.1}{\ignorespaces Especificaci\IeC {\'o}n t\IeC {\'e}cnica Kinect.}}{31}{table.4.1}
\contentsline {table}{\numberline {4.2}{\ignorespaces Conjuntos de datos existentes, el n\IeC {\'u}mero de categor\IeC {\'\i }as y el n\IeC {\'u}mero de clips por categor\IeC {\'\i }a ordenados por a\IeC {\~n}o}}{62}{table.4.2}
\addvspace {10\p@ }
\addvspace {10\p@ }
\contentsline {table}{\numberline {6.1}{\ignorespaces Resultados del tercer ejemplo con Processing.}}{95}{table.6.1}
\contentsline {table}{\numberline {6.2}{\ignorespaces Resultados obtenidos con ficheros \acs {PPM}.}}{130}{table.6.2}
\contentsline {table}{\numberline {6.3}{\ignorespaces Resultados obtenidos con ficheros \acs {JPEG}.}}{131}{table.6.3}
\addvspace {10\p@ }
\contentsline {table}{\numberline {7.1}{\ignorespaces Informaci\IeC {\'o}n y n\IeC {\'u}mero de acciones realizado por cada actor.}}{170}{table.7.1}
\contentsline {table}{\numberline {7.2}{\ignorespaces Porcentaje de acierto de cada actor (sin guiar) en cada tipo de acci\IeC {\'o}n seg\IeC {\'u}n el tipo de imagen.}}{173}{table.7.2}
\contentsline {table}{\numberline {7.3}{\ignorespaces Porcentaje de acierto de cada actor (guiado) en cada tipo de acci\IeC {\'o}n seg\IeC {\'u}n el tipo de imagen.}}{174}{table.7.3}
\contentsline {table}{\numberline {7.4}{\ignorespaces Porcentaje de acierto de cada acci\IeC {\'o}n seg\IeC {\'u}n el tipo de imagen (entorno guiado y sin guiar).}}{175}{table.7.4}
\contentsline {table}{\numberline {7.5}{\ignorespaces Matriz de confusi\IeC {\'o}n de los v\IeC {\'\i }deos RGB (entorno guiado y sin guiar).}}{176}{table.7.5}
\contentsline {table}{\numberline {7.6}{\ignorespaces Matriz de confusi\IeC {\'o}n de los v\IeC {\'\i }deos de profundidad (entorno guiado y sin guiar).}}{176}{table.7.6}
\contentsline {table}{\numberline {7.7}{\ignorespaces Matriz de confusi\IeC {\'o}n de los v\IeC {\'\i }deos de los esqueletos (entorno guiado y sin guiar).}}{177}{table.7.7}
\contentsline {table}{\numberline {7.8}{\ignorespaces Comparaci\IeC {\'o}n de resultados con ~\cite {MartinezDelRincon:2013:CRH:2537174.2537391}.}}{178}{table.7.8}
\contentsline {table}{\numberline {7.9}{\ignorespaces Comparaci\IeC {\'o}n de resultados con ~\cite {MartinezDelRincon:2013:CRH:2537174.2537391}.}}{178}{table.7.9}
\addvspace {10\p@ }
\addvspace {10\p@ }
\addvspace {10\p@ }
\addvspace {10\p@ }
\addvspace {10\p@ }
\addvspace {10\p@ }
